#THQL n=2: ,,,,,,,,,,,,,,,,,,,,,,,,,,,
# Excitation data from: \\exp\files\Control\ctldev\Steiner\Calibrations\Z012QB.dat,,,,,,,,,,,,,,,,,,,,,,,,,,,
#  Field[kG] @ 2.500 in. [Z011QB.dat Type Z from Dblt27exc1.xls], [m] pole-tip radius of quadrupole yoke T40303-TD-000917,,,,,,,,,,,,,,,,,,,,,,,,,,
M5_PARAM_TABLE_V01
0.0635, Reference radius to use with coefficients.,,,,,,,,,,,,,,,,,,,,,,,,,,
0.356, yoke length,,,,,,,,,,,,,,,,,,,,,,,,,,
2, IMP order of multipole,,,,,,,,,,,,,,,,,,,,,,,,,,
2, IMP_REF multipole for effective length of M5,,,,,,,,,,,,,,,,,,,,,,,,,,
0, oper. lower limit (field gradient),,,,,,,,,,,,,,,,,,,,,,,,,,
35, oper. upper limit (field gradient),,,,,,,,,,,,,,,,,,,,,,,,,,
# i2[A],g2[T/m],B2(Rwb)[T], L2[m], a0i_n2, a0e_n2, a1i_n2, a1e_n2, a2i_n2, a2e_n2, a3i_n2, a3e_n2, a4i_n2, a4e_n2, a5i_n2, a5e_n2, a6i_n2, a6e_n2, a7i_n2, a7e_n2, a8i_n2, a8e_n2, a9i_n2, a9e_n2, a10i_n2, a10e_n2, a11i_n2, a11e_n2 
START table,,,,,,,,,,,,,,,,,,,,,,,,,,,
0,0,0,0.4107,0.126651,0.126651,2.54415,2.54415,-0.315208,-0.315208,0.448238,0.448238,-0.108779,-0.108779,0.00677152,0.00677152,0,0,0,0,0,0,0,0,0,0,0,0
1.1346,2.55984252,0.16255,0.4107,0.126651,0.126651,2.54415,2.54415,-0.315208,-0.315208,0.448238,0.448238,-0.108779,-0.108779,0.00677152,0.00677152,0,0,0,0,0,0,0,0,0,0,0,0
2.2693,5.118740157,0.32504,0.4107,0.126651,0.126651,2.54415,2.54415,-0.315208,-0.315208,0.448238,0.448238,-0.108779,-0.108779,0.00677152,0.00677152,0,0,0,0,0,0,0,0,0,0,0,0
3.4039,7.675905512,0.48742,0.4107,0.126651,0.126651,2.54415,2.54415,-0.315208,-0.315208,0.448238,0.448238,-0.108779,-0.108779,0.00677152,0.00677152,0,0,0,0,0,0,0,0,0,0,0,0
4.5385,10.22818898,0.64949,0.4107,0.126651,0.126651,2.54415,2.54415,-0.315208,-0.315208,0.448238,0.448238,-0.108779,-0.108779,0.00677152,0.00677152,0,0,0,0,0,0,0,0,0,0,0,0
5.6732,12.77905512,0.81147,0.4107,0.126651,0.126651,2.54415,2.54415,-0.315208,-0.315208,0.448238,0.448238,-0.108779,-0.108779,0.00677152,0.00677152,0,0,0,0,0,0,0,0,0,0,0,0
6.8078,15.31889764,0.97275,0.4107,0.126651,0.126651,2.54415,2.54415,-0.315208,-0.315208,0.448238,0.448238,-0.108779,-0.108779,0.00677152,0.00677152,0,0,0,0,0,0,0,0,0,0,0,0
7.9424,17.82771654,1.13206,0.4107,0.126651,0.126651,2.54415,2.54415,-0.315208,-0.315208,0.448238,0.448238,-0.108779,-0.108779,0.00677152,0.00677152,0,0,0,0,0,0,0,0,0,0,0,0
9.077,20.22472441,1.28427,0.4107,0.126651,0.126651,2.54415,2.54415,-0.315208,-0.315208,0.448238,0.448238,-0.108779,-0.108779,0.00677152,0.00677152,0,0,0,0,0,0,0,0,0,0,0,0
10.2117,22.47811024,1.42736,0.4107,0.126651,0.126651,2.54415,2.54415,-0.315208,-0.315208,0.448238,0.448238,-0.108779,-0.108779,0.00677152,0.00677152,0,0,0,0,0,0,0,0,0,0,0,0
11.3463,24.59055118,1.5615,0.4107,0.126651,0.126651,2.54415,2.54415,-0.315208,-0.315208,0.448238,0.448238,-0.108779,-0.108779,0.00677152,0.00677152,0,0,0,0,0,0,0,0,0,0,0,0
12.4809,26.51055118,1.68342,0.4107,0.126651,0.126651,2.54415,2.54415,-0.315208,-0.315208,0.448238,0.448238,-0.108779,-0.108779,0.00677152,0.00677152,0,0,0,0,0,0,0,0,0,0,0,0
13.6156,28.2088189,1.79126,0.4107,0.126651,0.126651,2.54415,2.54415,-0.315208,-0.315208,0.448238,0.448238,-0.108779,-0.108779,0.00677152,0.00677152,0,0,0,0,0,0,0,0,0,0,0,0
14.7502,29.70755906,1.88643,0.4107,0.126651,0.126651,2.54415,2.54415,-0.315208,-0.315208,0.448238,0.448238,-0.108779,-0.108779,0.00677152,0.00677152,0,0,0,0,0,0,0,0,0,0,0,0
15.8848,31.06582677,1.97268,0.4107,0.126651,0.126651,2.54415,2.54415,-0.315208,-0.315208,0.448238,0.448238,-0.108779,-0.108779,0.00677152,0.00677152,0,0,0,0,0,0,0,0,0,0,0,0
17.0195,32.34472441,2.05389,0.4107,0.126651,0.126651,2.54415,2.54415,-0.315208,-0.315208,0.448238,0.448238,-0.108779,-0.108779,0.00677152,0.00677152,0,0,0,0,0,0,0,0,0,0,0,0
18.1541,33.56314961,2.13126,0.4107,0.126651,0.126651,2.54415,2.54415,-0.315208,-0.315208,0.448238,0.448238,-0.108779,-0.108779,0.00677152,0.00677152,0,0,0,0,0,0,0,0,0,0,0,0
END,,,,,,,,,,,,,,,,,,,,,,,,,,,
