#2021-03 MP--  Ref. FRIB-T40503-TD-001575,,,,,,,,,,,,,,,,,,,,,,,,,,,
#\\intranet\files\departments\fribESD\MagnetSystems\Maxwell\FSQ8,,,,,,,,,,,,,,,,,,,,,,,,,,,
#  0.252, [m] pole-tip radius of quadrupole yoke T40303-TD-000917,,,,,,,,,,,,,,,,,,,,,,,,,,
M5_PARAM_TABLE_V01,,,,,,,,,,,,,,,,,,,,,,,,,,,
0.1937, Reference radius to use with coefficients.,,,,,,,,,,,,,,,,,,,,,,,,,,
0.781, yoke length,,,,,,,,,,,,,,,,,,,,,,,,,,
4, IMP order of multipole,,,,,,,,,,,,,,,,,,,,,,,,,,
2, IMP_REF multipole for effective length of M5,,,,,,,,,,,,,,,,,,,,,,,,,,
0, oper. lower limit (field gradient),,,,,,,,,,,,,,,,,,,,,,,,,,
12.3, oper. upper limit (field gradient),,,,,,,,,,,,,,,,,,,,,,,,,,
# i4[A],g4[T/m^3],B(Rwb)[T], L[m], a0i_n2, a0e_n2, a1i_n2, a1e_n2, a2i_n2, a2e_n2, a3i_n2, a3e_n2, a4i_n2, a4e_n2, a5i_n2, a5e_n2, a6i_n2, a6e_n2, a7i_n2, a7e_n2, a8i_n2, a8e_n2, a9i_n2, a9e_n2, a10i_n2, a10e_n2, a11i_n2, a11e_n2 
START table,,,,,,,,,,,,,,,,,,,,,,,,,,,
0,0,0,0.865748,0.426941,0.426941,10.09275656,10.09275656,1.575304226,1.575304226,2.027668354,2.027668354,0,0,0,0,0,0,0,0,0,0,0,0,0,0,0,0
2.199134,2.544686,0.018493668,0.865748,0.426941,0.426941,10.09275656,10.09275656,1.575304226,1.575304226,2.027668354,2.027668354,0,0,0,0,0,0,0,0,0,0,0,0,0,0,0,0
4.399436,4.98773,0.036248647,0.86134,0.311167,0.311167,10.3175848,10.3175848,2.597925958,2.597925958,8.791188129,8.791188129,0,0,0,0,0,0,0,0,0,0,0,0,0,0,0,0
6.599863,7.453902,0.054171709,0.859493,0.304461,0.304461,10.64462591,10.64462591,2.5929598,2.5929598,3.713887284,3.713887284,0,0,0,0,0,0,0,0,0,0,0,0,0,0,0,0
8.80023,9.862863,0.071678988,0.858729,0.296065,0.296065,10.58324928,10.58324928,0.949651809,0.949651809,-0.048417045,-0.048417045,0,0,0,0,0,0,0,0,0,0,0,0,0,0,0,0
11.000529,12.287649,0.089301275,0.858333,0.283847,0.283847,10.60020624,10.60020624,1.134623018,1.134623018,0.028928145,0.028928145,0,0,0,0,0,0,0,0,0,0,0,0,0,0,0,0
END,,,,,,,,,,,,,,,,,,,,,,,,,,,
