#2020-09 MP--  Ref. FRIB-T40503-TD-001567,,,,,,,,,,,,,,,,,,,,,,,,,,,
#\\intranet\files\departments\fribESD\MagnetSystems\Maxwell\FSQ7,,,,,,,,,,,,,,,,,,,,,,,,,,,
#  0.252, [m] pole-tip radius of quadrupole yoke T40303-TD-000917,,,,,,,,,,,,,,,,,,,,,,,,,,
M5_PARAM_TABLE_V01,,,,,,,,,,,,,,,,,,,,,,,,,,,
0.1937, Reference radius to use with coefficients.,,,,,,,,,,,,,,,,,,,,,,,,,,
0.549, yoke length,,,,,,,,,,,,,,,,,,,,,,,,,,
2, IMP order of multipole,,,,,,,,,,,,,,,,,,,,,,,,,,
2, IMP_REF multipole for effective length of M5,,,,,,,,,,,,,,,,,,,,,,,,,,
0, oper. lower limit (field gradient),,,,,,,,,,,,,,,,,,,,,,,,,,
9.206598, oper. upper limit (field gradient),,,,,,,,,,,,,,,,,,,,,,,,,,
# i2[A],g2[T/m],B2(Rwb)[T], L2[m], a0i_n2, a0e_n2, a1i_n2, a1e_n2, a2i_n2, a2e_n2, a3i_n2, a3e_n2, a4i_n2, a4e_n2, a5i_n2, a5e_n2, a6i_n2, a6e_n2, a7i_n2, a7e_n2, a8i_n2, a8e_n2, a9i_n2, a9e_n2, a10i_n2, a10e_n2, a11i_n2, a11e_n2 
START table,,,,,,,,,,,,,,,,,,,,,,,,,,,
0,0,0,0.710412,0.171181,-0.075971,5.979860437,5.913184958,-1.488748102,-2.359267425,2.116297291,1.067147776,0,0,0,0,0,0,0,0,0,0,0,0,0,0,0,0
32.106273,1.088504,0.210843225,0.710412,0.171181,-0.075971,5.979860437,5.913184958,-1.488748102,-2.359267425,2.116297291,1.067147776,0,0,0,0,0,0,0,0,0,0,0,0,0,0,0,0
64.20889,2.257395,0.437257412,0.70923,0.247953,0.077303,5.909022049,5.837476164,-1.285356568,-2.113174474,1.934514419,0.926717997,0,0,0,0,0,0,0,0,0,0,0,0,0,0,0,0
96.312041,3.391224,0.656880089,0.706617,0.227477,0.099312,5.866636221,5.78709939,-1.081959644,-1.867078828,1.752727124,0.786288218,0,0,0,0,0,0,0,0,0,0,0,0,0,0,0,0
128.4,4.475909,0.866983573,0.700447,0.209817,0.05438,5.836006998,5.743968309,-0.878662421,-1.621096356,1.571028294,0.645929211,0,0,0,0,0,0,0,0,0,0,0,0,0,0,0,0
160.519503,5.499425,1.065238623,0.689594,0.194947,0.009995,5.780157379,5.676094516,-0.675163103,-1.374874064,1.389152533,0.50542866,0,0,0,0,0,0,0,0,0,0,0,0,0,0,0,0
192.619087,6.446537,1.248694217,0.678873,0.182895,-0.000596,5.643671106,5.545621151,-0.471790431,-1.128805365,1.207387354,0.365012151,0,0,0,0,0,0,0,0,0,0,0,0,0,0,0,0
224.720817,7.304399,1.414862086,0.67302,0.173649,0.017693,5.418946275,5.350847593,-0.268401592,-0.882717803,1.025613329,0.224591219,0,0,0,0,0,0,0,0,0,0,0,0,0,0,0,0
256.830022,8.059548,1.561134448,0.670886,0.167209,0.042028,5.230689574,5.172131437,-0.064969638,-0.636573655,0.843790647,0.084134901,0,0,0,0,0,0,0,0,0,0,0,0,0,0,0,0
288.932952,8.698093,1.684820614,0.67035,0.163578,0.048915,5.20696789,5.115129467,0.13842459,-0.390478009,0.662007775,-0.056294878,0,0,0,0,0,0,0,0,0,0,0,0,0,0,0,0
321.033506,9.190178,1.780137479,0.670332,0.025935,0.025935,5.188146159,5.188146159,-0.39095226,-0.39095226,-0.011496063,-0.011496063,0,0,0,0,0,0,0,0,0,0,0,0,0,0,0,0
END,,,,,,,,,,,,,,,,,,,,,,,,,,,
