%!PS-Adobe-3.0
%%Creator: COSY INFINITY Graphics
%%Title: pic007.ps
%%BoundingBox: 50 21 550 771
%%Orientation: Landscape
%%Pages: 1
%%Page: 1 1
/sn {stroke newpath} bind def
/w {setlinewidth} def
/m {moveto} bind def
/l {lineto} bind def
/ms {newpath moveto gsave 1 1.5 scale show grestore} bind def
/t {moveto lineto lineto closepath gsave fill grestore stroke newpath} bind def
/tw {moveto lineto lineto closepath stroke newpath} bind def
/c {setrgbcolor} bind def % - color picture
%/c {add add 3 div setgray} bind def % - grayscale picture except for shfill GRPOLY objects
/Helvetica findfont 0.02 scalefont setfont
500 750 scale 1.100 0.0280 translate 90 rotate
1 setlinejoin 1 setlinecap
0.0015 setlinewidth 0 0 1 1 rectclip
.000000 .000000 .000000 c
.000000 .200000 1.000000 c
( SPOS: =    46.49) .037037037 .132822478 ms
( ELLIPSE HALF-WIDTH HOR = 0.253E-02, VERT= 0.111E-01) .037037037 .084929757 ms
(  ALPHA= -.849E-01,  BETA= 0.228,  EPS= 0.280E-04) .037037037 .037037037 ms
.480425382 .356321839 m
.513158643 .358237548 l
.526716110 .360153257 l
.537085338 .362068966 l
.545791023 .363984674 l
.553425285 .365900383 l
.560292545 .367816092 l
.566574071 .369731801 l
.572388241 .371647510 l
.577817464 .373563218 l
.582921872 .375478927 l
.587746956 .377394636 l
.592328133 .379310345 l
.596693621 .381226054 l
.600866347 .383141762 l
.604865240 .385057471 l
.608706150 .386973180 l
.612402505 .388888889 l
.615965806 .390804598 l
.619405990 .392720307 l
.622731717 .394636015 l
.625950587 .396551724 l
.629069315 .398467433 l
.632093868 .400383142 l
.635029576 .402298851 l
.637881228 .404214559 l
.640653140 .406130268 l
.643349221 .408045977 l
.645973026 .409961686 l
.648527795 .411877395 l
.651016495 .413793103 l
.653441848 .415708812 l
.655806359 .417624521 l
.658112341 .419540230 l
.660361931 .421455939 l
.662557113 .423371648 l
.664699726 .425287356 l
.666791487 .427203065 l
.668833992 .429118774 l
.670828735 .431034483 l
.672777113 .432950192 l
.674680435 .434865900 l
.676539930 .436781609 l
.678356751 .438697318 l
.680131985 .440613027 l
.681866655 .442528736 l
.683561725 .444444444 l
.685218106 .446360153 l
.686836659 .448275862 l
.688418197 .450191571 l
.689963491 .452107280 l
.691473270 .454022989 l
.692948227 .455938697 l
.694389018 .457854406 l
.695796266 .459770115 l
.697170562 .461685824 l
.698512470 .463601533 l
.699822524 .465517241 l
.701101234 .467432950 l
.702349082 .469348659 l
.703566529 .471264368 l
.704754016 .473180077 l
.705911958 .475095785 l
.707040755 .477011494 l
.708140785 .478927203 l
.709212410 .480842912 l
.710255973 .482758621 l
.711271803 .484674330 l
.712260211 .486590038 l
.713221496 .488505747 l
.714155940 .490421456 l
.715063812 .492337165 l
.715945370 .494252874 l
.716800856 .496168582 l
.717630503 .498084291 l
.718434530 .500000000 l
.719213147 .501915709 l
.719966551 .503831418 l
.720694929 .505747126 l
.721398460 .507662835 l
.722077310 .509578544 l
.722731638 .511494253 l
.723361591 .513409962 l
.723967311 .515325670 l
.724548928 .517241379 l
.725106563 .519157088 l
.725640332 .521072797 l
.726150340 .522988506 l
.726636685 .524904215 l
.727099456 .526819923 l
.727538737 .528735632 l
.727954601 .530651341 l
.728347116 .532567050 l
.728716343 .534482759 l
.729062332 .536398467 l
.729385131 .538314176 l
.729684778 .540229885 l
.729961303 .542145594 l
.730214731 .544061303 l
.730445079 .545977011 l
.730652358 .547892720 l
.730836572 .549808429 l
.730997716 .551724138 l
.731135780 .553639847 l
.731250748 .555555556 l
.731342594 .557471264 l
.731411287 .559386973 l
.731456790 .561302682 l
.731479056 .563218391 l
.731478033 .565134100 l
.731453661 .567049808 l
.731405873 .568965517 l
.731334594 .570881226 l
.731239742 .572796935 l
.731121227 .574712644 l
.730978950 .576628352 l
.730812807 .578544061 l
.730622683 .580459770 l
.730408456 .582375479 l
.730169994 .584291188 l
.729907159 .586206897 l
.729619801 .588122605 l
.729307763 .590038314 l
.728970877 .591954023 l
.728608965 .593869732 l
.728221841 .595785441 l
.727809306 .597701149 l
.727371152 .599616858 l
.726907158 .601532567 l
.726417093 .603448276 l
.725900713 .605363985 l
.725357762 .607279693 l
.724787970 .609195402 l
.724191054 .611111111 l
.723566716 .613026820 l
.722914645 .614942529 l
.722234513 .616858238 l
.721525975 .618773946 l
.720788671 .620689655 l
.720022221 .622605364 l
.719226227 .624521073 l
.718400272 .626436782 l
.717543916 .628352490 l
.716656700 .630268199 l
.715738138 .632183908 l
.714787722 .634099617 l
.713804918 .636015326 l
.712789163 .637931034 l
.711739864 .639846743 l
.710656400 .641762452 l
.709538113 .643678161 l
.708384312 .645593870 l
.707194266 .647509579 l
.705967206 .649425287 l
.704702317 .651340996 l
.703398740 .653256705 l
.702055562 .655172414 l
.700671821 .657088123 l
.699246492 .659003831 l
.697778490 .660919540 l
.696266660 .662835249 l
.694709774 .664750958 l
.693106524 .666666667 l
.691455511 .668582375 l
.689755243 .670498084 l
.688004122 .672413793 l
.686200433 .674329502 l
.684342335 .676245211 l
.682427846 .678160920 l
.680454827 .680076628 l
.678420967 .681992337 l
.676323759 .683908046 l
.674160482 .685823755 l
.671928170 .687739464 l
.669623581 .689655172 l
.667243162 .691570881 l
.664783002 .693486590 l
.662238786 .695402299 l
.659605726 .697318008 l
.656878491 .699233716 l
.654051113 .701149425 l
.651116878 .703065134 l
.648068186 .704980843 l
.644896378 .706896552 l
.641591515 .708812261 l
.638142098 .710727969 l
.634534697 .712643678 l
.630753464 .714559387 l
.626779468 .716475096 l
.622589784 .718390805 l
.618156192 .720306513 l
.613443277 .722222222 l
.608405546 .724137931 l
.602982869 .726053640 l
.597092835 .727969349 l
.590617067 .729885057 l
.583374298 .731800766 l
.575060106 .733716475 l
.565082370 .735632184 l
.551916395 .737547893 l
.486841357 .737547893 l
.473283890 .735632184 l
.462914662 .733716475 l
.454208977 .731800766 l
.446574715 .729885057 l
.439707455 .727969349 l
.433425929 .726053640 l
.427611759 .724137931 l
.422182536 .722222222 l
.417078128 .720306513 l
.412253044 .718390805 l
.407671867 .716475096 l
.403306379 .714559387 l
.399133653 .712643678 l
.395134760 .710727969 l
.391293850 .708812261 l
.387597495 .706896552 l
.384034194 .704980843 l
.380594010 .703065134 l
.377268283 .701149425 l
.374049413 .699233716 l
.370930685 .697318008 l
.367906132 .695402299 l
.364970424 .693486590 l
.362118772 .691570881 l
.359346860 .689655172 l
.356650779 .687739464 l
.354026974 .685823755 l
.351472205 .683908046 l
.348983505 .681992337 l
.346558152 .680076628 l
.344193641 .678160920 l
.341887659 .676245211 l
.339638069 .674329502 l
.337442887 .672413793 l
.335300274 .670498084 l
.333208513 .668582375 l
.331166008 .666666667 l
.329171265 .664750958 l
.327222887 .662835249 l
.325319565 .660919540 l
.323460070 .659003831 l
.321643249 .657088123 l
.319868015 .655172414 l
.318133345 .653256705 l
.316438275 .651340996 l
.314781894 .649425287 l
.313163341 .647509579 l
.311581803 .645593870 l
.310036509 .643678161 l
.308526730 .641762452 l
.307051773 .639846743 l
.305610982 .637931034 l
.304203734 .636015326 l
.302829438 .634099617 l
.301487530 .632183908 l
.300177476 .630268199 l
.298898766 .628352490 l
.297650918 .626436782 l
.296433471 .624521073 l
.295245984 .622605364 l
.294088042 .620689655 l
.292959245 .618773946 l
.291859215 .616858238 l
.290787590 .614942529 l
.289744027 .613026820 l
.288728197 .611111111 l
.287739789 .609195402 l
.286778504 .607279693 l
.285844060 .605363985 l
.284936188 .603448276 l
.284054630 .601532567 l
.283199144 .599616858 l
.282369497 .597701149 l
.281565470 .595785441 l
.280786853 .593869732 l
.280033449 .591954023 l
.279305071 .590038314 l
.278601540 .588122605 l
.277922690 .586206897 l
.277268362 .584291188 l
.276638409 .582375479 l
.276032689 .580459770 l
.275451072 .578544061 l
.274893437 .576628352 l
.274359668 .574712644 l
.273849660 .572796935 l
.273363315 .570881226 l
.272900544 .568965517 l
.272461263 .567049808 l
.272045399 .565134100 l
.271652884 .563218391 l
.271283657 .561302682 l
.270937668 .559386973 l
.270614869 .557471264 l
.270315222 .555555556 l
.270038697 .553639847 l
.269785269 .551724138 l
.269554921 .549808429 l
.269347642 .547892720 l
.269163428 .545977011 l
.269002284 .544061303 l
.268864220 .542145594 l
.268749252 .540229885 l
.268657406 .538314176 l
.268588713 .536398467 l
.268543210 .534482759 l
.268520944 .532567050 l
.268521967 .530651341 l
.268546339 .528735632 l
.268594127 .526819923 l
.268665406 .524904215 l
.268760258 .522988506 l
.268878773 .521072797 l
.269021050 .519157088 l
.269187193 .517241379 l
.269377317 .515325670 l
.269591544 .513409962 l
.269830006 .511494253 l
.270092841 .509578544 l
.270380199 .507662835 l
.270692237 .505747126 l
.271029123 .503831418 l
.271391035 .501915709 l
.271778159 .500000000 l
.272190694 .498084291 l
.272628848 .496168582 l
.273092842 .494252874 l
.273582907 .492337165 l
.274099287 .490421456 l
.274642238 .488505747 l
.275212030 .486590038 l
.275808946 .484674330 l
.276433284 .482758621 l
.277085355 .480842912 l
.277765487 .478927203 l
.278474025 .477011494 l
.279211329 .475095785 l
.279977779 .473180077 l
.280773773 .471264368 l
.281599728 .469348659 l
.282456084 .467432950 l
.283343300 .465517241 l
.284261862 .463601533 l
.285212278 .461685824 l
.286195082 .459770115 l
.287210837 .457854406 l
.288260136 .455938697 l
.289343600 .454022989 l
.290461887 .452107280 l
.291615688 .450191571 l
.292805734 .448275862 l
.294032794 .446360153 l
.295297683 .444444444 l
.296601260 .442528736 l
.297944438 .440613027 l
.299328179 .438697318 l
.300753508 .436781609 l
.302221510 .434865900 l
.303733340 .432950192 l
.305290226 .431034483 l
.306893476 .429118774 l
.308544489 .427203065 l
.310244757 .425287356 l
.311995878 .423371648 l
.313799567 .421455939 l
.315657665 .419540230 l
.317572154 .417624521 l
.319545173 .415708812 l
.321579033 .413793103 l
.323676241 .411877395 l
.325839518 .409961686 l
.328071830 .408045977 l
.330376419 .406130268 l
.332756838 .404214559 l
.335216998 .402298851 l
.337761214 .400383142 l
.340394274 .398467433 l
.343121509 .396551724 l
.345948887 .394636015 l
.348883122 .392720307 l
.351931814 .390804598 l
.355103622 .388888889 l
.358408485 .386973180 l
.361857902 .385057471 l
.365465303 .383141762 l
.369246536 .381226054 l
.373220532 .379310345 l
.377410216 .377394636 l
.381843808 .375478927 l
.386556723 .373563218 l
.391594454 .371647510 l
.397017131 .369731801 l
.402907165 .367816092 l
.409382933 .365900383 l
.416625702 .363984674 l
.424939894 .362068966 l
.434917630 .360153257 l
.448083605 .358237548 l
.480425382 .356321839 l
sn
.000000 .000000 .000000 c
( 2 VS  1   [  ] ) .037037037 .962962963 ms
(0.505E-02) .837577160 .553001277 ms
(0.222E-01) .509259259 .899106003 ms
( SPOS: =    46.49) .037037037 .132822478 ms
.808641975 .547892720 m
.962962963 .547892720 l
sn
.191358025 .547892720 m
.037037037 .547892720 l
sn
.500000000 .803320562 m
.500000000 .931034483 l
sn
.500000000 .292464879 m
.500000000 .164750958 l
sn
.037037037 .931034483 m
.962962963 .931034483 l
sn
.037037037 .164750958 m
.962962963 .164750958 l
sn
.037037037 .164750958 m
.037037037 .931034483 l
sn
.962962963 .164750958 m
.962962963 .931034483 l
stroke
showpage
% 3D bounds of the COSY GR object:
%  x [ -0.50515915E-02 ,  0.50515915E-02 ]
%  y [ -0.29644720E-01 ,  0.24086335E-01 ]
%  z [  0.00000000E+00 ,  0.00000000E+00 ]
% 2D projection of the 3D bounds:
%  x [ -0.50515915E-02 ,  0.50515915E-02 ]
%  y [ -0.29644720E-01 ,  0.24086335E-01 ]
% Projection angles (deg):  .00000  .00000  .00000
% Total number of GR polynomial objects: 0
% Zoom bounds: none
%%EOF
