%!PS-Adobe-3.0
%%Creator: COSY INFINITY Graphics
%%Title: pic003.ps
%%BoundingBox: 50 21 550 771
%%Orientation: Landscape
%%Pages: 1
%%Page: 1 1
/sn {stroke newpath} bind def
/w {setlinewidth} def
/m {moveto} bind def
/l {lineto} bind def
/ms {newpath moveto gsave 1 1.5 scale show grestore} bind def
/t {moveto lineto lineto closepath gsave fill grestore stroke newpath} bind def
/tw {moveto lineto lineto closepath stroke newpath} bind def
/c {setrgbcolor} bind def % - color picture
%/c {add add 3 div setgray} bind def % - grayscale picture except for shfill GRPOLY objects
/Helvetica findfont 0.02 scalefont setfont
500 750 scale 1.100 0.0280 translate 90 rotate
1 setlinejoin 1 setlinecap
0.0015 setlinewidth 0 0 1 1 rectclip
.000000 .000000 .000000 c
.000000 .200000 1.000000 c
( SPOS: =    18.41) .037037037 .132822478 ms
( ELLIPSE HALF-WIDTH HOR = 0.415E-03, VERT= 0.608E-02) .037037037 .084929757 ms
(  ALPHA= -.320E-02,  BETA= 0.682E-01,  EPS= 0.252E-05) .037037037 .037037037 ms
.499386523 .256737756 m
.526465131 .259649306 l
.537588734 .262560856 l
.546059600 .265472405 l
.553146332 .268383955 l
.559341600 .271295505 l
.564898692 .274207054 l
.569968431 .277118604 l
.574649312 .280030154 l
.579009902 .282941703 l
.583100233 .285853253 l
.586958156 .288764802 l
.590613138 .291676352 l
.594088660 .294587902 l
.597403795 .297499451 l
.600574296 .300411001 l
.603613347 .303322551 l
.606532124 .306234100 l
.609340194 .309145650 l
.612045827 .312057200 l
.614656227 .314968749 l
.617177718 .317880299 l
.619615887 .320791849 l
.621975698 .323703398 l
.624261587 .326614948 l
.626477538 .329526497 l
.628627142 .332438047 l
.630713653 .335349597 l
.632740026 .338261146 l
.634708959 .341172696 l
.636622920 .344084246 l
.638484174 .346995795 l
.640294805 .349907345 l
.642056737 .352818895 l
.643771750 .355730444 l
.645441492 .358641994 l
.647067496 .361553543 l
.648651187 .364465093 l
.650193897 .367376643 l
.651696867 .370288192 l
.653161259 .373199742 l
.654588163 .376111292 l
.655978601 .379022841 l
.657333533 .381934391 l
.658653863 .384845941 l
.659940441 .387757490 l
.661194071 .390669040 l
.662415511 .393580589 l
.663605476 .396492139 l
.664764643 .399403689 l
.665893653 .402315238 l
.666993115 .405226788 l
.668063602 .408138338 l
.669105662 .411049887 l
.670119813 .413961437 l
.671106548 .416872987 l
.672066333 .419784536 l
.672999615 .422696086 l
.673906817 .425607635 l
.674788341 .428519185 l
.675644571 .431430735 l
.676475872 .434342284 l
.677282591 .437253834 l
.678065060 .440165384 l
.678823594 .443076933 l
.679558494 .445988483 l
.680270045 .448900033 l
.680958521 .451811582 l
.681624182 .454723132 l
.682267274 .457634682 l
.682888034 .460546231 l
.683486685 .463457781 l
.684063441 .466369330 l
.684618505 .469280880 l
.685152070 .472192430 l
.685664318 .475103979 l
.686155424 .478015529 l
.686625551 .480927079 l
.687074857 .483838628 l
.687503488 .486750178 l
.687911584 .489661728 l
.688299276 .492573277 l
.688666688 .495484827 l
.689013937 .498396376 l
.689341131 .501307926 l
.689648372 .504219476 l
.689935754 .507131025 l
.690203367 .510042575 l
.690451291 .512954125 l
.690679601 .515865674 l
.690888365 .518777224 l
.691077647 .521688774 l
.691247501 .524600323 l
.691397978 .527511873 l
.691529121 .530423422 l
.691640969 .533334972 l
.691733553 .536246522 l
.691806899 .539158071 l
.691861027 .542069621 l
.691895952 .544981171 l
.691911683 .547892720 l
.691908222 .550804270 l
.691885566 .553715820 l
.691843707 .556627369 l
.691782631 .559538919 l
.691702317 .562450468 l
.691602739 .565362018 l
.691483865 .568273568 l
.691345658 .571185117 l
.691188073 .574096667 l
.691011061 .577008217 l
.690814566 .579919766 l
.690598525 .582831316 l
.690362871 .585742866 l
.690107528 .588654415 l
.689832415 .591565965 l
.689537444 .594477515 l
.689222519 .597389064 l
.688887540 .600300614 l
.688532398 .603212163 l
.688156975 .606123713 l
.687761148 .609035263 l
.687344787 .611946812 l
.686907751 .614858362 l
.686449893 .617769912 l
.685971057 .620681461 l
.685471079 .623593011 l
.684949784 .626504561 l
.684406989 .629416110 l
.683842502 .632327660 l
.683256121 .635239209 l
.682647631 .638150759 l
.682016808 .641062309 l
.681363417 .643973858 l
.680687210 .646885408 l
.679987928 .649796958 l
.679265298 .652708507 l
.678519034 .655620057 l
.677748835 .658531607 l
.676954385 .661443156 l
.676135354 .664354706 l
.675291393 .667266255 l
.674422139 .670177805 l
.673527206 .673089355 l
.672606194 .676000904 l
.671658678 .678912454 l
.670684213 .681824004 l
.669682332 .684735553 l
.668652541 .687647103 l
.667594323 .690558653 l
.666507131 .693470202 l
.665390390 .696381752 l
.664243493 .699293302 l
.663065798 .702204851 l
.661856628 .705116401 l
.660615267 .708027950 l
.659340958 .710939500 l
.658032898 .713851050 l
.656690236 .716762599 l
.655312067 .719674149 l
.653897433 .722585699 l
.652445310 .725497248 l
.650954610 .728408798 l
.649424170 .731320348 l
.647852748 .734231897 l
.646239013 .737143447 l
.644581541 .740054996 l
.642878798 .742966546 l
.641129135 .745878096 l
.639330773 .748789645 l
.637481789 .751701195 l
.635580098 .754612745 l
.633623434 .757524294 l
.631609331 .760435844 l
.629535090 .763347394 l
.627397755 .766258943 l
.625194074 .769170493 l
.622920454 .772082042 l
.620572912 .774993592 l
.618147013 .777905142 l
.615637792 .780816691 l
.613039662 .783728241 l
.610346298 .786639791 l
.607550498 .789551340 l
.604643990 .792462890 l
.601617208 .795374440 l
.598458978 .798285989 l
.595156111 .801197539 l
.591692860 .804109088 l
.588050147 .807020638 l
.584204493 .809932188 l
.580126432 .812843737 l
.575778112 .815755287 l
.571109500 .818666837 l
.566052031 .821578386 l
.560507208 .824489936 l
.554324210 .827401486 l
.547249747 .830313035 l
.538791151 .833224585 l
.527679818 .836136135 l
.473534869 .836136135 l
.462411266 .833224585 l
.453940400 .830313035 l
.446853668 .827401486 l
.440658400 .824489936 l
.435101308 .821578386 l
.430031569 .818666837 l
.425350688 .815755287 l
.420990098 .812843737 l
.416899767 .809932188 l
.413041844 .807020638 l
.409386862 .804109088 l
.405911340 .801197539 l
.402596205 .798285989 l
.399425704 .795374440 l
.396386653 .792462890 l
.393467876 .789551340 l
.390659806 .786639791 l
.387954173 .783728241 l
.385343773 .780816691 l
.382822282 .777905142 l
.380384113 .774993592 l
.378024302 .772082042 l
.375738413 .769170493 l
.373522462 .766258943 l
.371372858 .763347394 l
.369286347 .760435844 l
.367259974 .757524294 l
.365291041 .754612745 l
.363377080 .751701195 l
.361515826 .748789645 l
.359705195 .745878096 l
.357943263 .742966546 l
.356228250 .740054996 l
.354558508 .737143447 l
.352932504 .734231897 l
.351348813 .731320348 l
.349806103 .728408798 l
.348303133 .725497248 l
.346838741 .722585699 l
.345411837 .719674149 l
.344021399 .716762599 l
.342666467 .713851050 l
.341346137 .710939500 l
.340059559 .708027950 l
.338805929 .705116401 l
.337584489 .702204851 l
.336394524 .699293302 l
.335235357 .696381752 l
.334106347 .693470202 l
.333006885 .690558653 l
.331936398 .687647103 l
.330894338 .684735553 l
.329880187 .681824004 l
.328893452 .678912454 l
.327933667 .676000904 l
.327000385 .673089355 l
.326093183 .670177805 l
.325211659 .667266255 l
.324355429 .664354706 l
.323524128 .661443156 l
.322717409 .658531607 l
.321934940 .655620057 l
.321176406 .652708507 l
.320441506 .649796958 l
.319729955 .646885408 l
.319041479 .643973858 l
.318375818 .641062309 l
.317732726 .638150759 l
.317111966 .635239209 l
.316513315 .632327660 l
.315936559 .629416110 l
.315381495 .626504561 l
.314847930 .623593011 l
.314335682 .620681461 l
.313844576 .617769912 l
.313374449 .614858362 l
.312925143 .611946812 l
.312496512 .609035263 l
.312088416 .606123713 l
.311700724 .603212163 l
.311333312 .600300614 l
.310986063 .597389064 l
.310658869 .594477515 l
.310351628 .591565965 l
.310064246 .588654415 l
.309796633 .585742866 l
.309548709 .582831316 l
.309320399 .579919766 l
.309111635 .577008217 l
.308922353 .574096667 l
.308752499 .571185117 l
.308602022 .568273568 l
.308470879 .565362018 l
.308359031 .562450468 l
.308266447 .559538919 l
.308193101 .556627369 l
.308138973 .553715820 l
.308104048 .550804270 l
.308088317 .547892720 l
.308091778 .544981171 l
.308114434 .542069621 l
.308156293 .539158071 l
.308217369 .536246522 l
.308297683 .533334972 l
.308397261 .530423422 l
.308516135 .527511873 l
.308654342 .524600323 l
.308811927 .521688774 l
.308988939 .518777224 l
.309185434 .515865674 l
.309401475 .512954125 l
.309637129 .510042575 l
.309892472 .507131025 l
.310167585 .504219476 l
.310462556 .501307926 l
.310777481 .498396376 l
.311112460 .495484827 l
.311467602 .492573277 l
.311843025 .489661728 l
.312238852 .486750178 l
.312655213 .483838628 l
.313092249 .480927079 l
.313550107 .478015529 l
.314028943 .475103979 l
.314528921 .472192430 l
.315050216 .469280880 l
.315593011 .466369330 l
.316157498 .463457781 l
.316743879 .460546231 l
.317352369 .457634682 l
.317983192 .454723132 l
.318636583 .451811582 l
.319312790 .448900033 l
.320012072 .445988483 l
.320734702 .443076933 l
.321480966 .440165384 l
.322251165 .437253834 l
.323045615 .434342284 l
.323864646 .431430735 l
.324708607 .428519185 l
.325577861 .425607635 l
.326472794 .422696086 l
.327393806 .419784536 l
.328341322 .416872987 l
.329315787 .413961437 l
.330317668 .411049887 l
.331347459 .408138338 l
.332405677 .405226788 l
.333492869 .402315238 l
.334609610 .399403689 l
.335756507 .396492139 l
.336934202 .393580589 l
.338143372 .390669040 l
.339384733 .387757490 l
.340659042 .384845941 l
.341967102 .381934391 l
.343309764 .379022841 l
.344687933 .376111292 l
.346102567 .373199742 l
.347554690 .370288192 l
.349045390 .367376643 l
.350575830 .364465093 l
.352147252 .361553543 l
.353760987 .358641994 l
.355418459 .355730444 l
.357121202 .352818895 l
.358870865 .349907345 l
.360669227 .346995795 l
.362518211 .344084246 l
.364419902 .341172696 l
.366376566 .338261146 l
.368390669 .335349597 l
.370464910 .332438047 l
.372602245 .329526497 l
.374805926 .326614948 l
.377079546 .323703398 l
.379427088 .320791849 l
.381852987 .317880299 l
.384362208 .314968749 l
.386960338 .312057200 l
.389653702 .309145650 l
.392449502 .306234100 l
.395356010 .303322551 l
.398382792 .300411001 l
.401541022 .297499451 l
.404843889 .294587902 l
.408307140 .291676352 l
.411949853 .288764802 l
.415795507 .285853253 l
.419873568 .282941703 l
.424221888 .280030154 l
.428890500 .277118604 l
.433947969 .274207054 l
.439492792 .271295505 l
.445675790 .268383955 l
.452750253 .265472405 l
.461208849 .262560856 l
.472320182 .259649306 l
.499386523 .256737756 l
sn
.000000 .000000 .000000 c
( 2 VS  1   [  ] ) .037037037 .962962963 ms
(0.100E-02) .837577160 .553001277 ms
(0.800E-02) .509259259 .899106003 ms
( SPOS: =    18.41) .037037037 .132822478 ms
.808641975 .547892720 m
.962962963 .547892720 l
sn
.191358025 .547892720 m
.037037037 .547892720 l
sn
.500000000 .803320562 m
.500000000 .931034483 l
sn
.500000000 .292464879 m
.500000000 .164750958 l
sn
.037037037 .931034483 m
.962962963 .931034483 l
sn
.037037037 .164750958 m
.962962963 .164750958 l
sn
.037037037 .164750958 m
.037037037 .931034483 l
sn
.962962963 .164750958 m
.962962963 .931034483 l
stroke
showpage
% 3D bounds of the COSY GR object:
%  x [ -0.10000000E-02 ,  0.10000000E-02 ]
%  y [ -0.10666667E-01 ,  0.86666667E-02 ]
%  z [  0.00000000E+00 ,  0.00000000E+00 ]
% 2D projection of the 3D bounds:
%  x [ -0.10000000E-02 ,  0.10000000E-02 ]
%  y [ -0.10666667E-01 ,  0.86666667E-02 ]
% Projection angles (deg):  .00000  .00000  .00000
% Total number of GR polynomial objects: 0
% Zoom bounds: none
%%EOF
