%!PS-Adobe-3.0
%%Creator: COSY INFINITY Graphics
%%Title: pic004.ps
%%BoundingBox: 50 21 550 771
%%Orientation: Landscape
%%Pages: 1
%%Page: 1 1
/sn {stroke newpath} bind def
/w {setlinewidth} def
/m {moveto} bind def
/l {lineto} bind def
/ms {newpath moveto gsave 1 1.5 scale show grestore} bind def
/t {moveto lineto lineto closepath gsave fill grestore stroke newpath} bind def
/tw {moveto lineto lineto closepath stroke newpath} bind def
/c {setrgbcolor} bind def % - color picture
%/c {add add 3 div setgray} bind def % - grayscale picture except for shfill GRPOLY objects
/Helvetica findfont 0.02 scalefont setfont
500 750 scale 1.100 0.0280 translate 90 rotate
1 setlinejoin 1 setlinecap
0.0015 setlinewidth 0 0 1 1 rectclip
.000000 .000000 .000000 c
.000000 .200000 1.000000 c
( SPOS: =    18.41) .037037037 .132822478 ms
( ELLIPSE HALF-WIDTH HOR = 0.321E-03, VERT= 0.787E-02) .037037037 .084929757 ms
(  ALPHA= 0.449E-01,  BETA= 0.408E-01,  EPS= 0.252E-05) .037037037 .037037037 ms
.506662658 .171130956 m
.527517172 .174898574 l
.536041933 .178666192 l
.542516705 .182433809 l
.547921842 .186201427 l
.552638071 .189969044 l
.556861128 .193736662 l
.560707568 .197504280 l
.564253505 .201271897 l
.567551926 .205039515 l
.570641496 .208807133 l
.573551465 .212574750 l
.576304605 .216342368 l
.578919060 .220109986 l
.581409573 .223877603 l
.583788313 .227645221 l
.586065473 .231412839 l
.588249686 .235180456 l
.590348347 .238948074 l
.592367846 .242715691 l
.594313750 .246483309 l
.596190948 .250250927 l
.598003755 .254018544 l
.599756009 .257786162 l
.601451137 .261553780 l
.603092218 .265321397 l
.604682028 .269089015 l
.606223080 .272856633 l
.607717659 .276624250 l
.609167849 .280391868 l
.610575558 .284159485 l
.611942535 .287927103 l
.613270392 .291694721 l
.614560616 .295462338 l
.615814580 .299229956 l
.617033561 .302997574 l
.618218741 .306765191 l
.619371224 .310532809 l
.620492036 .314300427 l
.621582137 .318068044 l
.622642427 .321835662 l
.623673747 .325603280 l
.624676885 .329370897 l
.625652586 .333138515 l
.626601547 .336906132 l
.627524425 .340673750 l
.628421841 .344441368 l
.629294381 .348208985 l
.630142598 .351976603 l
.630967015 .355744221 l
.631768128 .359511838 l
.632546405 .363279456 l
.633302292 .367047074 l
.634036211 .370814691 l
.634748561 .374582309 l
.635439725 .378349926 l
.636110064 .382117544 l
.636759921 .385885162 l
.637389623 .389652779 l
.637999482 .393420397 l
.638589795 .397188015 l
.639160842 .400955632 l
.639712894 .404723250 l
.640246205 .408490868 l
.640761019 .412258485 l
.641257570 .416026103 l
.641736077 .419793721 l
.642196752 .423561338 l
.642639795 .427328956 l
.643065399 .431096573 l
.643473744 .434864191 l
.643865004 .438631809 l
.644239344 .442399426 l
.644596920 .446167044 l
.644937882 .449934662 l
.645262371 .453702279 l
.645570522 .457469897 l
.645862461 .461237515 l
.646138309 .465005132 l
.646398180 .468772750 l
.646642182 .472540367 l
.646870417 .476307985 l
.647082979 .480075603 l
.647279959 .483843220 l
.647461442 .487610838 l
.647627505 .491378456 l
.647778222 .495146073 l
.647913661 .498913691 l
.648033885 .502681309 l
.648138951 .506448926 l
.648228914 .510216544 l
.648303820 .513984162 l
.648363713 .517751779 l
.648408631 .521519397 l
.648438609 .525287014 l
.648453676 .529054632 l
.648453855 .532822250 l
.648439168 .536589867 l
.648409630 .540357485 l
.648365252 .544125103 l
.648306041 .547892720 l
.648231999 .551660338 l
.648143124 .555427956 l
.648039409 .559195573 l
.647920843 .562963191 l
.647787410 .566730809 l
.647639090 .570498426 l
.647475859 .574266044 l
.647297688 .578033661 l
.647104541 .581801279 l
.646896382 .585568897 l
.646673167 .589336514 l
.646434847 .593104132 l
.646181370 .596871750 l
.645912678 .600639367 l
.645628708 .604406985 l
.645329392 .608174603 l
.645014656 .611942220 l
.644684423 .615709838 l
.644338607 .619477455 l
.643977119 .623245073 l
.643599864 .627012691 l
.643206740 .630780308 l
.642797638 .634547926 l
.642372446 .638315544 l
.641931043 .642083161 l
.641473300 .645850779 l
.640999085 .649618397 l
.640508256 .653386014 l
.640000663 .657153632 l
.639476149 .660921250 l
.638934551 .664688867 l
.638375695 .668456485 l
.637799398 .672224102 l
.637205470 .675991720 l
.636593710 .679759338 l
.635963906 .683526955 l
.635315839 .687294573 l
.634649274 .691062191 l
.633963970 .694829808 l
.633259669 .698597426 l
.632536104 .702365044 l
.631792991 .706132661 l
.631030036 .709900279 l
.630246926 .713667896 l
.629443334 .717435514 l
.628618917 .721203132 l
.627773313 .724970749 l
.626906141 .728738367 l
.626017001 .732505985 l
.625105471 .736273602 l
.624171105 .740041220 l
.623213435 .743808838 l
.622231965 .747576455 l
.621226172 .751344073 l
.620195502 .755111691 l
.619139371 .758879308 l
.618057157 .762646926 l
.616948203 .766414543 l
.615811811 .770182161 l
.614647239 .773949779 l
.613453696 .777717396 l
.612230341 .781485014 l
.610976276 .785252632 l
.609690540 .789020249 l
.608372107 .792787867 l
.607019873 .796555485 l
.605632655 .800323102 l
.604209179 .804090720 l
.602748069 .807858337 l
.601247838 .811625955 l
.599706876 .815393573 l
.598123433 .819161190 l
.596495601 .822928808 l
.594821296 .826696426 l
.593098233 .830464043 l
.591323899 .834231661 l
.589495517 .837999279 l
.587610010 .841766896 l
.585663950 .845534514 l
.583653499 .849302132 l
.581574341 .853069749 l
.579421589 .856837367 l
.577189675 .860604984 l
.574872209 .864372602 l
.572461797 .868140220 l
.569949803 .871907837 l
.567326037 .875675455 l
.564578329 .879443073 l
.561691936 .883210690 l
.558648713 .886978308 l
.555425890 .890745926 l
.551994216 .894513543 l
.548315026 .898281161 l
.544335333 .902048779 l
.539979022 .905816396 l
.535129541 .909584014 l
.529591150 .913351631 l
.522983126 .917119249 l
.514325111 .920886867 l
.493337353 .924654484 l
.472482828 .920886867 l
.463958067 .917119249 l
.457483295 .913351631 l
.452078158 .909584014 l
.447361929 .905816396 l
.443138872 .902048779 l
.439292432 .898281161 l
.435746495 .894513543 l
.432448074 .890745926 l
.429358504 .886978308 l
.426448535 .883210690 l
.423695395 .879443073 l
.421080940 .875675455 l
.418590427 .871907837 l
.416211687 .868140220 l
.413934527 .864372602 l
.411750314 .860604984 l
.409651653 .856837367 l
.407632154 .853069749 l
.405686250 .849302132 l
.403809052 .845534514 l
.401996245 .841766896 l
.400243991 .837999279 l
.398548863 .834231661 l
.396907782 .830464043 l
.395317972 .826696426 l
.393776920 .822928808 l
.392282341 .819161190 l
.390832151 .815393573 l
.389424442 .811625955 l
.388057465 .807858337 l
.386729608 .804090720 l
.385439384 .800323102 l
.384185420 .796555485 l
.382966439 .792787867 l
.381781259 .789020249 l
.380628776 .785252632 l
.379507964 .781485014 l
.378417863 .777717396 l
.377357573 .773949779 l
.376326253 .770182161 l
.375323115 .766414543 l
.374347414 .762646926 l
.373398453 .758879308 l
.372475575 .755111691 l
.371578159 .751344073 l
.370705619 .747576455 l
.369857402 .743808838 l
.369032985 .740041220 l
.368231872 .736273602 l
.367453595 .732505985 l
.366697708 .728738367 l
.365963789 .724970749 l
.365251439 .721203132 l
.364560275 .717435514 l
.363889936 .713667896 l
.363240079 .709900279 l
.362610377 .706132661 l
.362000518 .702365044 l
.361410205 .698597426 l
.360839158 .694829808 l
.360287106 .691062191 l
.359753795 .687294573 l
.359238981 .683526955 l
.358742430 .679759338 l
.358263923 .675991720 l
.357803248 .672224102 l
.357360205 .668456485 l
.356934601 .664688867 l
.356526256 .660921250 l
.356134996 .657153632 l
.355760656 .653386014 l
.355403080 .649618397 l
.355062118 .645850779 l
.354737629 .642083161 l
.354429478 .638315544 l
.354137539 .634547926 l
.353861691 .630780308 l
.353601820 .627012691 l
.353357818 .623245073 l
.353129583 .619477455 l
.352917021 .615709838 l
.352720041 .611942220 l
.352538558 .608174603 l
.352372495 .604406985 l
.352221778 .600639367 l
.352086339 .596871750 l
.351966115 .593104132 l
.351861049 .589336514 l
.351771086 .585568897 l
.351696180 .581801279 l
.351636287 .578033661 l
.351591369 .574266044 l
.351561391 .570498426 l
.351546324 .566730809 l
.351546145 .562963191 l
.351560832 .559195573 l
.351590370 .555427956 l
.351634748 .551660338 l
.351693959 .547892720 l
.351768001 .544125103 l
.351856876 .540357485 l
.351960591 .536589867 l
.352079157 .532822250 l
.352212590 .529054632 l
.352360910 .525287014 l
.352524141 .521519397 l
.352702312 .517751779 l
.352895459 .513984162 l
.353103618 .510216544 l
.353326833 .506448926 l
.353565153 .502681309 l
.353818630 .498913691 l
.354087322 .495146073 l
.354371292 .491378456 l
.354670608 .487610838 l
.354985344 .483843220 l
.355315577 .480075603 l
.355661393 .476307985 l
.356022881 .472540367 l
.356400136 .468772750 l
.356793260 .465005132 l
.357202362 .461237515 l
.357627554 .457469897 l
.358068957 .453702279 l
.358526700 .449934662 l
.359000915 .446167044 l
.359491744 .442399426 l
.359999337 .438631809 l
.360523851 .434864191 l
.361065449 .431096573 l
.361624305 .427328956 l
.362200602 .423561338 l
.362794530 .419793721 l
.363406290 .416026103 l
.364036094 .412258485 l
.364684161 .408490868 l
.365350726 .404723250 l
.366036030 .400955632 l
.366740331 .397188015 l
.367463896 .393420397 l
.368207009 .389652779 l
.368969964 .385885162 l
.369753074 .382117544 l
.370556666 .378349926 l
.371381083 .374582309 l
.372226687 .370814691 l
.373093859 .367047074 l
.373982999 .363279456 l
.374894529 .359511838 l
.375828895 .355744221 l
.376786565 .351976603 l
.377768035 .348208985 l
.378773828 .344441368 l
.379804498 .340673750 l
.380860629 .336906132 l
.381942843 .333138515 l
.383051797 .329370897 l
.384188189 .325603280 l
.385352761 .321835662 l
.386546304 .318068044 l
.387769659 .314300427 l
.389023724 .310532809 l
.390309460 .306765191 l
.391627893 .302997574 l
.392980127 .299229956 l
.394367345 .295462338 l
.395790821 .291694721 l
.397251931 .287927103 l
.398752162 .284159485 l
.400293124 .280391868 l
.401876567 .276624250 l
.403504399 .272856633 l
.405178704 .269089015 l
.406901767 .265321397 l
.408676101 .261553780 l
.410504483 .257786162 l
.412389990 .254018544 l
.414336050 .250250927 l
.416346501 .246483309 l
.418425659 .242715691 l
.420578411 .238948074 l
.422810325 .235180456 l
.425127791 .231412839 l
.427538203 .227645221 l
.430050197 .223877603 l
.432673963 .220109986 l
.435421671 .216342368 l
.438308064 .212574750 l
.441351287 .208807133 l
.444574110 .205039515 l
.448005784 .201271897 l
.451684974 .197504280 l
.455664667 .193736662 l
.460020978 .189969044 l
.464870459 .186201427 l
.470408850 .182433809 l
.477016874 .178666192 l
.485674889 .174898574 l
.506662647 .171130956 l
.506662658 .171130956 l
sn
.000000 .000000 .000000 c
( 4 VS  3   [  ] ) .037037037 .962962963 ms
(0.100E-02) .837577160 .553001277 ms
(0.800E-02) .509259259 .899106003 ms
( SPOS: =    18.41) .037037037 .132822478 ms
.808641975 .547892720 m
.962962963 .547892720 l
sn
.191358025 .547892720 m
.037037037 .547892720 l
sn
.500000000 .803320562 m
.500000000 .931034483 l
sn
.500000000 .292464879 m
.500000000 .164750958 l
sn
.037037037 .931034483 m
.962962963 .931034483 l
sn
.037037037 .164750958 m
.962962963 .164750958 l
sn
.037037037 .164750958 m
.037037037 .931034483 l
sn
.962962963 .164750958 m
.962962963 .931034483 l
stroke
showpage
% 3D bounds of the COSY GR object:
%  x [ -0.10000000E-02 ,  0.10000000E-02 ]
%  y [ -0.10666667E-01 ,  0.86666667E-02 ]
%  z [  0.00000000E+00 ,  0.00000000E+00 ]
% 2D projection of the 3D bounds:
%  x [ -0.10000000E-02 ,  0.10000000E-02 ]
%  y [ -0.10666667E-01 ,  0.86666667E-02 ]
% Projection angles (deg):  .00000  .00000  .00000
% Total number of GR polynomial objects: 0
% Zoom bounds: none
%%EOF
