%!PS-Adobe-3.0
%%Creator: COSY INFINITY Graphics
%%Title: pic008.ps
%%BoundingBox: 50 21 550 771
%%Orientation: Landscape
%%Pages: 1
%%Page: 1 1
/sn {stroke newpath} bind def
/w {setlinewidth} def
/m {moveto} bind def
/l {lineto} bind def
/ms {newpath moveto gsave 1 1.5 scale show grestore} bind def
/t {moveto lineto lineto closepath gsave fill grestore stroke newpath} bind def
/tw {moveto lineto lineto closepath stroke newpath} bind def
/c {setrgbcolor} bind def % - color picture
%/c {add add 3 div setgray} bind def % - grayscale picture except for shfill GRPOLY objects
/Helvetica findfont 0.02 scalefont setfont
500 750 scale 1.100 0.0280 translate 90 rotate
1 setlinejoin 1 setlinecap
0.0015 setlinewidth 0 0 1 1 rectclip
.000000 .000000 .000000 c
.000000 .200000 1.000000 c
( SPOS: =    46.49) .037037037 .132822478 ms
( ELLIPSE HALF-WIDTH HOR = 0.168E-03, VERT= 0.151E-01) .037037037 .084929757 ms
(  ALPHA= 0.109,  BETA= 0.112E-01,  EPS= 0.252E-05) .037037037 .037037037 ms
.508447392 .356321839 m
.519249158 .358237548 l
.523635181 .360153257 l
.526954500 .362068966 l
.529717238 .363984674 l
.532121505 .365900383 l
.534269153 .367816092 l
.536220829 .369731801 l
.538016139 .371647510 l
.539682655 .373563218 l
.541240496 .375478927 l
.542704883 .377394636 l
.544087664 .379310345 l
.545398282 .381226054 l
.546644406 .383141762 l
.547832370 .385057471 l
.548967476 .386973180 l
.550054218 .388888889 l
.551096444 .390804598 l
.552097478 .392720307 l
.553060217 .394636015 l
.553987205 .396551724 l
.554880687 .398467433 l
.555742661 .400383142 l
.556574910 .402298851 l
.557379036 .404214559 l
.558156482 .406130268 l
.558908558 .408045977 l
.559636452 .409961686 l
.560341248 .411877395 l
.561023939 .413793103 l
.561685435 .415708812 l
.562326576 .417624521 l
.562948134 .419540230 l
.563550825 .421455939 l
.564135312 .423371648 l
.564702211 .425287356 l
.565252096 .427203065 l
.565785501 .429118774 l
.566302927 .431034483 l
.566804840 .432950192 l
.567291678 .434865900 l
.567763853 .436781609 l
.568221750 .438697318 l
.568665733 .440613027 l
.569096144 .442528736 l
.569513307 .444444444 l
.569917525 .446360153 l
.570309086 .448275862 l
.570688263 .450191571 l
.571055314 .452107280 l
.571410483 .454022989 l
.571754001 .455938697 l
.572086088 .457854406 l
.572406952 .459770115 l
.572716792 .461685824 l
.573015795 .463601533 l
.573304140 .465517241 l
.573581999 .467432950 l
.573849532 .469348659 l
.574106893 .471264368 l
.574354231 .473180077 l
.574591684 .475095785 l
.574819385 .477011494 l
.575037462 .478927203 l
.575246035 .480842912 l
.575445220 .482758621 l
.575635125 .484674330 l
.575815856 .486590038 l
.575987512 .488505747 l
.576150188 .490421456 l
.576303974 .492337165 l
.576448955 .494252874 l
.576585214 .496168582 l
.576712827 .498084291 l
.576831869 .500000000 l
.576942409 .501915709 l
.577044513 .503831418 l
.577138245 .505747126 l
.577223663 .507662835 l
.577300823 .509578544 l
.577369779 .511494253 l
.577430580 .513409962 l
.577483273 .515325670 l
.577527902 .517241379 l
.577564507 .519157088 l
.577593127 .521072797 l
.577613797 .522988506 l
.577626550 .524904215 l
.577631416 .526819923 l
.577628423 .528735632 l
.577617595 .530651341 l
.577598955 .532567050 l
.577572523 .534482759 l
.577538317 .536398467 l
.577496352 .538314176 l
.577446640 .540229885 l
.577389193 .542145594 l
.577324018 .544061303 l
.577251121 .545977011 l
.577170506 .547892720 l
.577082173 .549808429 l
.576986122 .551724138 l
.576882349 .553639847 l
.576770849 .555555556 l
.576651612 .557471264 l
.576524630 .559386973 l
.576389888 .561302682 l
.576247372 .563218391 l
.576097064 .565134100 l
.575938944 .567049808 l
.575772990 .568965517 l
.575599176 .570881226 l
.575417475 .572796935 l
.575227857 .574712644 l
.575030289 .576628352 l
.574824736 .578544061 l
.574611160 .580459770 l
.574389519 .582375479 l
.574159770 .584291188 l
.573921866 .586206897 l
.573675758 .588122605 l
.573421392 .590038314 l
.573158713 .591954023 l
.572887660 .593869732 l
.572608173 .595785441 l
.572320183 .597701149 l
.572023622 .599616858 l
.571718416 .601532567 l
.571404486 .603448276 l
.571081753 .605363985 l
.570750129 .607279693 l
.570409525 .609195402 l
.570059846 .611111111 l
.569700993 .613026820 l
.569332861 .614942529 l
.568955340 .616858238 l
.568568315 .618773946 l
.568171666 .620689655 l
.567765265 .622605364 l
.567348980 .624521073 l
.566922670 .626436782 l
.566486189 .628352490 l
.566039383 .630268199 l
.565582090 .632183908 l
.565114139 .634099617 l
.564635351 .636015326 l
.564145539 .637931034 l
.563644505 .639846743 l
.563132039 .641762452 l
.562607922 .643678161 l
.562071923 .645593870 l
.561523798 .647509579 l
.560963289 .649425287 l
.560390123 .651340996 l
.559804013 .653256705 l
.559204654 .655172414 l
.558591723 .657088123 l
.557964878 .659003831 l
.557323755 .660919540 l
.556667969 .662835249 l
.555997109 .664750958 l
.555310735 .666666667 l
.554608382 .668582375 l
.553889549 .670498084 l
.553153702 .672413793 l
.552400267 .674329502 l
.551628629 .676245211 l
.550838123 .678160920 l
.550028034 .680076628 l
.549197590 .681992337 l
.548345951 .683908046 l
.547472207 .685823755 l
.546575366 .687739464 l
.545654342 .689655172 l
.544707948 .691570881 l
.543734874 .693486590 l
.542733677 .695402299 l
.541702756 .697318008 l
.540640325 .699233716 l
.539544390 .701149425 l
.538412702 .703065134 l
.537242721 .704980843 l
.536031547 .706896552 l
.534775857 .708812261 l
.533471803 .710727969 l
.532114891 .712643678 l
.530699820 .714559387 l
.529220254 .716475096 l
.527668525 .718390805 l
.526035191 .720306513 l
.524308401 .722222222 l
.522472937 .724137931 l
.520508679 .726053640 l
.518388056 .727969349 l
.516071460 .729885057 l
.513498245 .731800766 l
.510566559 .733716475 l
.507078293 .735632184 l
.502523321 .737547893 l
.491552614 .739463602 l
.480750842 .737547893 l
.476364819 .735632184 l
.473045500 .733716475 l
.470282762 .731800766 l
.467878495 .729885057 l
.465730847 .727969349 l
.463779171 .726053640 l
.461983861 .724137931 l
.460317345 .722222222 l
.458759504 .720306513 l
.457295117 .718390805 l
.455912336 .716475096 l
.454601718 .714559387 l
.453355594 .712643678 l
.452167630 .710727969 l
.451032524 .708812261 l
.449945782 .706896552 l
.448903556 .704980843 l
.447902522 .703065134 l
.446939783 .701149425 l
.446012795 .699233716 l
.445119313 .697318008 l
.444257339 .695402299 l
.443425090 .693486590 l
.442620964 .691570881 l
.441843518 .689655172 l
.441091442 .687739464 l
.440363548 .685823755 l
.439658752 .683908046 l
.438976061 .681992337 l
.438314565 .680076628 l
.437673424 .678160920 l
.437051866 .676245211 l
.436449175 .674329502 l
.435864688 .672413793 l
.435297789 .670498084 l
.434747904 .668582375 l
.434214499 .666666667 l
.433697073 .664750958 l
.433195160 .662835249 l
.432708322 .660919540 l
.432236147 .659003831 l
.431778250 .657088123 l
.431334267 .655172414 l
.430903856 .653256705 l
.430486693 .651340996 l
.430082475 .649425287 l
.429690914 .647509579 l
.429311737 .645593870 l
.428944686 .643678161 l
.428589517 .641762452 l
.428245999 .639846743 l
.427913912 .637931034 l
.427593048 .636015326 l
.427283208 .634099617 l
.426984205 .632183908 l
.426695860 .630268199 l
.426418001 .628352490 l
.426150468 .626436782 l
.425893107 .624521073 l
.425645769 .622605364 l
.425408316 .620689655 l
.425180615 .618773946 l
.424962538 .616858238 l
.424753965 .614942529 l
.424554780 .613026820 l
.424364875 .611111111 l
.424184144 .609195402 l
.424012488 .607279693 l
.423849812 .605363985 l
.423696026 .603448276 l
.423551045 .601532567 l
.423414786 .599616858 l
.423287173 .597701149 l
.423168131 .595785441 l
.423057591 .593869732 l
.422955487 .591954023 l
.422861755 .590038314 l
.422776337 .588122605 l
.422699177 .586206897 l
.422630221 .584291188 l
.422569420 .582375479 l
.422516727 .580459770 l
.422472098 .578544061 l
.422435493 .576628352 l
.422406873 .574712644 l
.422386203 .572796935 l
.422373450 .570881226 l
.422368584 .568965517 l
.422371577 .567049808 l
.422382405 .565134100 l
.422401045 .563218391 l
.422427477 .561302682 l
.422461683 .559386973 l
.422503648 .557471264 l
.422553360 .555555556 l
.422610807 .553639847 l
.422675982 .551724138 l
.422748879 .549808429 l
.422829494 .547892720 l
.422917827 .545977011 l
.423013878 .544061303 l
.423117651 .542145594 l
.423229151 .540229885 l
.423348388 .538314176 l
.423475370 .536398467 l
.423610112 .534482759 l
.423752628 .532567050 l
.423902936 .530651341 l
.424061056 .528735632 l
.424227010 .526819923 l
.424400824 .524904215 l
.424582525 .522988506 l
.424772143 .521072797 l
.424969711 .519157088 l
.425175264 .517241379 l
.425388840 .515325670 l
.425610481 .513409962 l
.425840230 .511494253 l
.426078134 .509578544 l
.426324242 .507662835 l
.426578608 .505747126 l
.426841287 .503831418 l
.427112340 .501915709 l
.427391827 .500000000 l
.427679817 .498084291 l
.427976378 .496168582 l
.428281584 .494252874 l
.428595514 .492337165 l
.428918247 .490421456 l
.429249871 .488505747 l
.429590475 .486590038 l
.429940154 .484674330 l
.430299007 .482758621 l
.430667139 .480842912 l
.431044660 .478927203 l
.431431685 .477011494 l
.431828334 .475095785 l
.432234735 .473180077 l
.432651020 .471264368 l
.433077330 .469348659 l
.433513811 .467432950 l
.433960617 .465517241 l
.434417910 .463601533 l
.434885861 .461685824 l
.435364649 .459770115 l
.435854461 .457854406 l
.436355495 .455938697 l
.436867961 .454022989 l
.437392078 .452107280 l
.437928077 .450191571 l
.438476202 .448275862 l
.439036711 .446360153 l
.439609877 .444444444 l
.440195987 .442528736 l
.440795346 .440613027 l
.441408277 .438697318 l
.442035122 .436781609 l
.442676245 .434865900 l
.443332031 .432950192 l
.444002891 .431034483 l
.444689265 .429118774 l
.445391618 .427203065 l
.446110451 .425287356 l
.446846298 .423371648 l
.447599733 .421455939 l
.448371371 .419540230 l
.449161877 .417624521 l
.449971966 .415708812 l
.450802410 .413793103 l
.451654049 .411877395 l
.452527793 .409961686 l
.453424634 .408045977 l
.454345658 .406130268 l
.455292052 .404214559 l
.456265126 .402298851 l
.457266323 .400383142 l
.458297244 .398467433 l
.459359675 .396551724 l
.460455610 .394636015 l
.461587298 .392720307 l
.462757279 .390804598 l
.463968453 .388888889 l
.465224143 .386973180 l
.466528197 .385057471 l
.467885109 .383141762 l
.469300180 .381226054 l
.470779746 .379310345 l
.472331475 .377394636 l
.473964809 .375478927 l
.475691599 .373563218 l
.477527063 .371647510 l
.479491321 .369731801 l
.481611944 .367816092 l
.483928540 .365900383 l
.486501755 .363984674 l
.489433441 .362068966 l
.492921707 .360153257 l
.497476679 .358237548 l
.508447386 .356321839 l
.508447392 .356321839 l
sn
.000000 .000000 .000000 c
( 4 VS  3   [  ] ) .037037037 .962962963 ms
(0.100E-02) .837577160 .553001277 ms
(0.302E-01) .509259259 .899106003 ms
( SPOS: =    46.49) .037037037 .132822478 ms
.808641975 .547892720 m
.962962963 .547892720 l
sn
.191358025 .547892720 m
.037037037 .547892720 l
sn
.500000000 .803320562 m
.500000000 .931034483 l
sn
.500000000 .292464879 m
.500000000 .164750958 l
sn
.037037037 .931034483 m
.962962963 .931034483 l
sn
.037037037 .164750958 m
.962962963 .164750958 l
sn
.037037037 .164750958 m
.037037037 .931034483 l
sn
.962962963 .164750958 m
.962962963 .931034483 l
stroke
showpage
% 3D bounds of the COSY GR object:
%  x [ -0.10000000E-02 ,  0.10000000E-02 ]
%  y [ -0.40316092E-01 ,  0.32756825E-01 ]
%  z [  0.00000000E+00 ,  0.00000000E+00 ]
% 2D projection of the 3D bounds:
%  x [ -0.10000000E-02 ,  0.10000000E-02 ]
%  y [ -0.40316092E-01 ,  0.32756825E-01 ]
% Projection angles (deg):  .00000  .00000  .00000
% Total number of GR polynomial objects: 0
% Zoom bounds: none
%%EOF
