#2022-08 MP--  Ref. T40503-TR-000112,,,,,,,,,,,,,,,,,,,,,,,,,,,
M5_PARAM_TABLE_V01,,,,,,,,,,,,,,,,,,,,,,,,,,,
0.15, Reference radius to use with coefficients.,,,,,,,,,,,,,,,,,,,,,,,,,,
0.549, yoke length (used value from CIQT3),,,,,,,,,,,,,,,,,,,,,,,,,,
1, IMP order of multipole,,,,,,,,,,,,,,,,,,,,,,,,,,
2, IMP_REF multipole for effective length of M5,,,,,,,,,,,,,,,,,,,,,,,,,,
0, oper. lower limit (field gradient),,,,,,,,,,,,,,,,,,,,,,,,,,
0.09, oper. upper limit (field gradient),,,,,,,,,,,,,,,,,,,,,,,,,,
# i3[A],g1[T],Br(r0)[T],LEFF[m], a0i_n2, a0e_n2, a1i_n2, a1e_n2, a2i_n2, a2e_n2, a3i_n2, a3e_n2, a4i_n2, a4e_n2, a5i_n2, a5e_n2, a6i_n2, a6e_n2, a7i_n2, a7e_n2, a8i_n2, a8e_n2, a9i_n2, a9e_n2, a10i_n2, a10e_n2, a11i_n2, a11e_n2 
START table,,,,,,,,,,,,,,,,,,,,,,,,,,,
0,0,0,0.677016,0.40695,0.614674,6.89749322,7.126944915,0,0,0,0,0,0,0,0,0,0,0,0,0,0,0,0,0,0,0,0
4.396043,0.003985,0.003985,0.677016,0.40695,0.614674,6.89749322,7.126944915,0,0,0,0,0,0,0,0,0,0,0,0,0,0,0,0,0,0,0,0
8.79634,0.007698,0.007698,0.666408,0.352486,0.544329,7.100638983,7.227695339,0,0,0,0,0,0,0,0,0,0,0,0,0,0,0,0,0,0,0,0
13.196431,0.011444,0.011444,0.662038,0.368098,0.550637,6.898733898,7.199883051,0,0,0,0,0,0,0,0,0,0,0,0,0,0,0,0,0,0,0,0
17.59677,0.015089,0.015089,0.659875,0.349398,0.532177,6.944923729,7.226122881,0,0,0,0,0,0,0,0,0,0,0,0,0,0,0,0,0,0,0,0
21.996418,0.018721,0.018721,0.657193,0.311789,0.521757,6.985451695,7.263584746,0,0,0,0,0,0,0,0,0,0,0,0,0,0,0,0,0,0,0,0
END,,,,,,,,,,,,,,,,,,,,,,,,,,,
