#MP 2021-10 Fit to field model data, Maxwell on ANSYS.
# \\intranet\files\projects\fribmappers_data\FSD2_SCD4\simulation_YChoi_2021\analysis_code\
#version tag:
MSS_V01
 4.000000, Design bend radius
-50.000000, Bend angle
 0.100000, Half-gap
 0.716200, Entrance edge angle
 0, Entrance curvature
 0.716200, Exit edge angle
 0, Exit curvature
 2, Number of probe positions
SET1
 2, EXTF extended function flag
 2.04795, Tm, Brho
 0.4947, By at mid-bend position (NomField)
#Probe position(s) and field(s) (measured during mapping, position unknown)
0, 0, 0.4983
0, 0, 0 
62.79, Amps
 0.006054,T stdev between measured and model along beam path
IEE1_ENGEC
-6.15309e-01 
 3.30468e+00 
-1.82118e+00 
 1.40350e+00 
-4.10676e-01 
 3.84608e-02 
-5.18997e-07 
 5.10000e-01 
 2.30000e-01 
 1.59852e-07 
-1.37000e+00 
 7.00000e-01 
IEE2_ENGEC
-6.15309e-01 
 3.30468e+00 
-1.82118e+00 
 1.40350e+00 
-4.10676e-01 
 3.84608e-02 
-5.18997e-07 
 5.10000e-01 
 2.30000e-01 
 1.59852e-07 
-1.37000e+00 
 7.00000e-01 
W_COEFS: i,j,W(i,j)
1, 1,  1.00000e+00
1, 2,  0.00000e+00
1, 3,  0.00000e+00
1, 4,  0.00000e+00
1, 5,  0.00000e+00
1, 6,  0.00000e+00
1, 7,  0.00000e+00
2, 1,  0.00000e+00
2, 2,  0.00000e+00
2, 3,  0.00000e+00
2, 4,  0.00000e+00
2, 5,  0.00000e+00
2, 6,  0.00000e+00
2, 7,  0.00000e+00
3, 1,  0.00000e+00
3, 2,  0.00000e+00
3, 3,  0.00000e+00
3, 4,  0.00000e+00
3, 5,  0.00000e+00
3, 6,  0.00000e+00
3, 7,  0.00000e+00
4, 1,  0.00000e+00
4, 2,  0.00000e+00
4, 3,  0.00000e+00
4, 4,  0.00000e+00
4, 5,  0.00000e+00
4, 6,  0.00000e+00
4, 7,  0.00000e+00
5, 1,  0.00000e+00
5, 2,  0.00000e+00
5, 3,  0.00000e+00
5, 4,  0.00000e+00
5, 5,  0.00000e+00
5, 6,  0.00000e+00
5, 7,  0.00000e+00
6, 1,  0.00000e+00
6, 2,  0.00000e+00
6, 3,  0.00000e+00
6, 4,  0.00000e+00
6, 5,  0.00000e+00
6, 6,  0.00000e+00
6, 7,  0.00000e+00
7, 1,  0.00000e+00
7, 2,  0.00000e+00
7, 3,  0.00000e+00
7, 4,  0.00000e+00
7, 5,  0.00000e+00
7, 6,  0.00000e+00
7, 7,  0.00000e+00
SET2
 2, EXTF extended function flag
 2.53866, Tm, Brho
 0.613258, By at mid-bend position (NomField)
#Probe position(s) and field(s) (measured during mapping, position unknown)
0, 0, 0.6181 
0, 0, 0 
 78.49, Amps
 0.0125,T stdev between measured and model along beam path
IEE1_ENGEC
-6.16785e-01 
 3.30615e+00 
-1.83166e+00 
 1.41756e+00 
-4.10676e-01 
 3.84608e-02 
-3.02090e-07 
 5.10000e-01 
 2.30000e-01 
 1.99040e-07 
-1.37000e+00 
 7.00000e-01 
IEE2_ENGEC
-6.16785e-01 
 3.30615e+00 
-1.83166e+00 
 1.41756e+00 
-4.10676e-01 
 3.84608e-02 
-3.02090e-07 
 5.10000e-01 
 2.30000e-01 
 1.99040e-07 
-1.37000e+00 
 7.00000e-01 
W_COEFS: i,j,W(i,j)
1, 1,  1.00000e+00
1, 2,  0.00000e+00
1, 3,  0.00000e+00
1, 4,  0.00000e+00
1, 5,  0.00000e+00
1, 6,  0.00000e+00
1, 7,  0.00000e+00
2, 1,  0.00000e+00
2, 2,  0.00000e+00
2, 3,  0.00000e+00
2, 4,  0.00000e+00
2, 5,  0.00000e+00
2, 6,  0.00000e+00
2, 7,  0.00000e+00
3, 1,  0.00000e+00
3, 2,  0.00000e+00
3, 3,  0.00000e+00
3, 4,  0.00000e+00
3, 5,  0.00000e+00
3, 6,  0.00000e+00
3, 7,  0.00000e+00
4, 1,  0.00000e+00
4, 2,  0.00000e+00
4, 3,  0.00000e+00
4, 4,  0.00000e+00
4, 5,  0.00000e+00
4, 6,  0.00000e+00
4, 7,  0.00000e+00
5, 1,  0.00000e+00
5, 2,  0.00000e+00
5, 3,  0.00000e+00
5, 4,  0.00000e+00
5, 5,  0.00000e+00
5, 6,  0.00000e+00
5, 7,  0.00000e+00
6, 1,  0.00000e+00
6, 2,  0.00000e+00
6, 3,  0.00000e+00
6, 4,  0.00000e+00
6, 5,  0.00000e+00
6, 6,  0.00000e+00
6, 7,  0.00000e+00
7, 1,  0.00000e+00
7, 2,  0.00000e+00
7, 3,  0.00000e+00
7, 4,  0.00000e+00
7, 5,  0.00000e+00
7, 6,  0.00000e+00
7, 7,  0.00000e+00
SET3
 2, EXTF extended function flag
 3.69954, Tm, Brho
 0.893208, By at mid-bend position (NomField)
#Probe position(s) and field(s) (measured during mapping, position unknown)
0, 0, 0.8993
0, 0, 0 
117.74, Amps
 0.0155,T stdev between measured and model along beam path
IEE1_ENGEC
-6.06434e-01 
 3.34148e+00 
-1.70207e+00 
 8.61206e-01 
 0.00000e+00 
 0.00000e+00 
-5.69228e-08 
 1.70000e+00 
 2.80000e+00 
 2.88378e-03 
-2.00000e+00 
 2.50000e+00 
IEE2_ENGEC
-6.06434e-01 
 3.34148e+00 
-1.70207e+00 
 8.61206e-01 
 0.00000e+00 
 0.00000e+00 
-5.69228e-08 
 1.70000e+00 
 2.80000e+00 
 2.88378e-03 
-2.00000e+00 
 2.50000e+00 
W_COEFS: i,j,W(i,j)
1, 1,  1.00000e+00
1, 2,  0.00000e+00
1, 3,  0.00000e+00
1, 4,  0.00000e+00
1, 5,  0.00000e+00
1, 6,  0.00000e+00
1, 7,  0.00000e+00
2, 1,  0.00000e+00
2, 2,  0.00000e+00
2, 3,  0.00000e+00
2, 4,  0.00000e+00
2, 5,  0.00000e+00
2, 6,  0.00000e+00
2, 7,  0.00000e+00
3, 1,  0.00000e+00
3, 2,  0.00000e+00
3, 3,  0.00000e+00
3, 4,  0.00000e+00
3, 5,  0.00000e+00
3, 6,  0.00000e+00
3, 7,  0.00000e+00
4, 1,  0.00000e+00
4, 2,  0.00000e+00
4, 3,  0.00000e+00
4, 4,  0.00000e+00
4, 5,  0.00000e+00
4, 6,  0.00000e+00
4, 7,  0.00000e+00
5, 1,  0.00000e+00
5, 2,  0.00000e+00
5, 3,  0.00000e+00
5, 4,  0.00000e+00
5, 5,  0.00000e+00
5, 6,  0.00000e+00
5, 7,  0.00000e+00
6, 1,  0.00000e+00
6, 2,  0.00000e+00
6, 3,  0.00000e+00
6, 4,  0.00000e+00
6, 5,  0.00000e+00
6, 6,  0.00000e+00
6, 7,  0.00000e+00
7, 1,  0.00000e+00
7, 2,  0.00000e+00
7, 3,  0.00000e+00
7, 4,  0.00000e+00
7, 5,  0.00000e+00
7, 6,  0.00000e+00
7, 7,  0.00000e+00
SET4
 2, EXTF extended function flag
 4.74391, Tm
 1.146582, By at mid-bend position (NomField)
#Probe position(s) and field(s) (measured during mapping, position unknown)
0, 0, 1.1529
0, 0, 0 
157.0, Amps
 0.0202,T stdev between measured and model along beam path
IEE1_ENGEC
-5.89512e-01 
 3.27104e+00 
-1.63795e+00 
 8.66036e-01 
 0.00000e+00 
 0.00000e+00 
-5.64796e-10 
 1.70000e+00 
 2.80000e+00 
 3.07486e-03 
-2.00000e+00 
 2.50000e+00 
IEE2_ENGEC
-5.89512e-01 
 3.27104e+00 
-1.63795e+00 
 8.66036e-01 
 0.00000e+00 
 0.00000e+00 
-5.64796e-10 
 1.70000e+00 
 2.80000e+00 
 3.07486e-03 
-2.00000e+00 
 2.50000e+00 
W_COEFS: i,j,W(i,j)
1, 1,  1.00000e+00
1, 2,  0.00000e+00
1, 3,  0.00000e+00
1, 4,  0.00000e+00
1, 5,  0.00000e+00
1, 6,  0.00000e+00
1, 7,  0.00000e+00
2, 1,  0.00000e+00
2, 2,  0.00000e+00
2, 3,  0.00000e+00
2, 4,  0.00000e+00
2, 5,  0.00000e+00
2, 6,  0.00000e+00
2, 7,  0.00000e+00
3, 1,  0.00000e+00
3, 2,  0.00000e+00
3, 3,  0.00000e+00
3, 4,  0.00000e+00
3, 5,  0.00000e+00
3, 6,  0.00000e+00
3, 7,  0.00000e+00
4, 1,  0.00000e+00
4, 2,  0.00000e+00
4, 3,  0.00000e+00
4, 4,  0.00000e+00
4, 5,  0.00000e+00
4, 6,  0.00000e+00
4, 7,  0.00000e+00
5, 1,  0.00000e+00
5, 2,  0.00000e+00
5, 3,  0.00000e+00
5, 4,  0.00000e+00
5, 5,  0.00000e+00
5, 6,  0.00000e+00
5, 7,  0.00000e+00
6, 1,  0.00000e+00
6, 2,  0.00000e+00
6, 3,  0.00000e+00
6, 4,  0.00000e+00
6, 5,  0.00000e+00
6, 6,  0.00000e+00
6, 7,  0.00000e+00
7, 1,  0.00000e+00
7, 2,  0.00000e+00
7, 3,  0.00000e+00
7, 4,  0.00000e+00
7, 5,  0.00000e+00
7, 6,  0.00000e+00
7, 7,  0.00000e+00
SET5
 2, EXTF extended function flag
 5.54880, Tm, Brho=By*Rdipole optimum
 1.346088, By at mid-bend position (NomField)
#Probe position(s) and field(s) (measured during mapping, position unknown)
0, 0, 1.3573
0, 0, 0 
196.23, Amps
 0.02405,T stdev between measured and model along beam path
IEE1_ENGEC
-5.62436e-01 
 3.15510e+00 
-1.51469e+00 
 8.63697e-01 
 0.00000e+00 
 0.00000e+00 
-3.68501e-03 
 1.70000e+00 
 2.80000e+00 
 3.88848e-03 
-2.00000e+00 
 2.50000e+00 
IEE2_ENGEC
-5.62436e-01 
 3.15510e+00 
-1.51469e+00 
 8.63697e-01 
 0.00000e+00 
 0.00000e+00 
-3.68501e-03 
 1.70000e+00 
 2.80000e+00 
 3.88848e-03 
-2.00000e+00 
 2.50000e+00 
W_COEFS: i,j,W(i,j)
1, 1,  1.00000e+00
1, 2,  0.00000e+00
1, 3,  0.00000e+00
1, 4,  0.00000e+00
1, 5,  0.00000e+00
1, 6,  0.00000e+00
1, 7,  0.00000e+00
2, 1,  0.00000e+00
2, 2,  0.00000e+00
2, 3,  0.00000e+00
2, 4,  0.00000e+00
2, 5,  0.00000e+00
2, 6,  0.00000e+00
2, 7,  0.00000e+00
3, 1,  0.00000e+00
3, 2,  0.00000e+00
3, 3,  0.00000e+00
3, 4,  0.00000e+00
3, 5,  0.00000e+00
3, 6,  0.00000e+00
3, 7,  0.00000e+00
4, 1,  0.00000e+00
4, 2,  0.00000e+00
4, 3,  0.00000e+00
4, 4,  0.00000e+00
4, 5,  0.00000e+00
4, 6,  0.00000e+00
4, 7,  0.00000e+00
5, 1,  0.00000e+00
5, 2,  0.00000e+00
5, 3,  0.00000e+00
5, 4,  0.00000e+00
5, 5,  0.00000e+00
5, 6,  0.00000e+00
5, 7,  0.00000e+00
6, 1,  0.00000e+00
6, 2,  0.00000e+00
6, 3,  0.00000e+00
6, 4,  0.00000e+00
6, 5,  0.00000e+00
6, 6,  0.00000e+00
6, 7,  0.00000e+00
7, 1,  0.00000e+00
7, 2,  0.00000e+00
7, 3,  0.00000e+00
7, 4,  0.00000e+00
7, 5,  0.00000e+00
7, 6,  0.00000e+00
7, 7,  0.00000e+00
SET6
 2, EXTF extended function flag
 6.17388, Tm, Brho=By*Rdipole optimum
 1.504789, By at mid-bend position (NomField)
#Probe position(s) and field(s) (measured during mapping, position unknown)
0, 0, 1.5262
0, 0, 0 
235.48, Amps
 0.0298,T stdev between measured and model along beam path
IEE1_ENGEC
-5.42171e-01 
 3.02508e+00 
-1.34002e+00 
 8.14189e-01 
 0.00000e+00 
 0.00000e+00 
-1.04484e-02 
 1.70000e+00 
 2.80000e+00 
 5.46657e-03 
-2.00000e+00 
 2.50000e+00 
IEE2_ENGEC
-5.42171e-01 
 3.02508e+00 
-1.34002e+00 
 8.14189e-01 
 0.00000e+00 
 0.00000e+00 
-1.04484e-02 
 1.70000e+00 
 2.80000e+00 
 5.46657e-03 
-2.00000e+00 
 2.50000e+00 
W_COEFS: i,j,W(i,j)
1, 1,  1.00000e+00
1, 2,  0.00000e+00
1, 3,  0.00000e+00
1, 4,  0.00000e+00
1, 5,  0.00000e+00
1, 6,  0.00000e+00
1, 7,  0.00000e+00
2, 1,  0.00000e+00
2, 2,  0.00000e+00
2, 3,  0.00000e+00
2, 4,  0.00000e+00
2, 5,  0.00000e+00
2, 6,  0.00000e+00
2, 7,  0.00000e+00
3, 1,  0.00000e+00
3, 2,  0.00000e+00
3, 3,  0.00000e+00
3, 4,  0.00000e+00
3, 5,  0.00000e+00
3, 6,  0.00000e+00
3, 7,  0.00000e+00
4, 1,  0.00000e+00
4, 2,  0.00000e+00
4, 3,  0.00000e+00
4, 4,  0.00000e+00
4, 5,  0.00000e+00
4, 6,  0.00000e+00
4, 7,  0.00000e+00
5, 1,  0.00000e+00
5, 2,  0.00000e+00
5, 3,  0.00000e+00
5, 4,  0.00000e+00
5, 5,  0.00000e+00
5, 6,  0.00000e+00
5, 7,  0.00000e+00
6, 1,  0.00000e+00
6, 2,  0.00000e+00
6, 3,  0.00000e+00
6, 4,  0.00000e+00
6, 5,  0.00000e+00
6, 6,  0.00000e+00
6, 7,  0.00000e+00
7, 1,  0.00000e+00
7, 2,  0.00000e+00
7, 3,  0.00000e+00
7, 4,  0.00000e+00
7, 5,  0.00000e+00
7, 6,  0.00000e+00
7, 7,  0.00000e+00
SET7
 2, EXTF extended function flag
 7.16375, Tm, Brho
 1.768433, By at mid-bend position (NomField)
#Probe position(s) and field(s) (measured during mapping, position unknown)
0, 0, 1.7997
0, 0, 0 
313.97, Amps
 0.046,T stdev between measured and model along beam path
IEE1_ENGEC
-5.12802e-01 
 2.76666e+00 
-9.17791e-01 
 6.57152e-01 
 0.00000e+00 
 0.00000e+00 
-2.40431e-02 
 1.70000e+00 
 2.80000e+00 
 4.44705e-03 
-2.00000e+00 
 2.50000e+00 
IEE2_ENGEC
-5.12802e-01 
 2.76666e+00 
-9.17791e-01 
 6.57152e-01 
 0.00000e+00 
 0.00000e+00 
-2.40431e-02 
 1.70000e+00 
 2.80000e+00 
 4.44705e-03 
-2.00000e+00 
 2.50000e+00 
W_COEFS: i,j,W(i,j)
1, 1,  1.00000e+00
1, 2,  0.00000e+00
1, 3,  0.00000e+00
1, 4,  0.00000e+00
1, 5,  0.00000e+00
1, 6,  0.00000e+00
1, 7,  0.00000e+00
2, 1,  0.00000e+00
2, 2,  0.00000e+00
2, 3,  0.00000e+00
2, 4,  0.00000e+00
2, 5,  0.00000e+00
2, 6,  0.00000e+00
2, 7,  0.00000e+00
3, 1,  0.00000e+00
3, 2,  0.00000e+00
3, 3,  0.00000e+00
3, 4,  0.00000e+00
3, 5,  0.00000e+00
3, 6,  0.00000e+00
3, 7,  0.00000e+00
4, 1,  0.00000e+00
4, 2,  0.00000e+00
4, 3,  0.00000e+00
4, 4,  0.00000e+00
4, 5,  0.00000e+00
4, 6,  0.00000e+00
4, 7,  0.00000e+00
5, 1,  0.00000e+00
5, 2,  0.00000e+00
5, 3,  0.00000e+00
5, 4,  0.00000e+00
5, 5,  0.00000e+00
5, 6,  0.00000e+00
5, 7,  0.00000e+00
6, 1,  0.00000e+00
6, 2,  0.00000e+00
6, 3,  0.00000e+00
6, 4,  0.00000e+00
6, 5,  0.00000e+00
6, 6,  0.00000e+00
6, 7,  0.00000e+00
7, 1,  0.00000e+00
7, 2,  0.00000e+00
7, 3,  0.00000e+00
7, 4,  0.00000e+00
7, 5,  0.00000e+00
7, 6,  0.00000e+00
7, 7,  0.00000e+00
SET8
 2, EXTF extended function flag
 7.57214, Tm, Brho
 1.881547, By at mid-bend position (NomField)
#Probe position(s) and field(s) (measured during mapping, position unknown)
0, 0, 1.9177
0, 0, 0 
353.22, Amps
 0.056,T stdev between measured and model along beam path
IEE1_ENGEC
-5.05840e-01 
 2.66782e+00 
-7.80247e-01 
 6.25637e-01 
 0.00000e+00 
 0.00000e+00 
-2.98285e-02 
 1.70000e+00 
 2.80000e+00 
 1.61523e-03 
-2.00000e+00 
 2.50000e+00 
IEE2_ENGEC
-5.05840e-01 
 2.66782e+00 
-7.80247e-01 
 6.25637e-01 
 0.00000e+00 
 0.00000e+00 
-2.98285e-02 
 1.70000e+00 
 2.80000e+00 
 1.61523e-03 
-2.00000e+00 
 2.50000e+00 
W_COEFS: i,j,W(i,j)
1, 1,  1.00000e+00
1, 2,  0.00000e+00
1, 3,  0.00000e+00
1, 4,  0.00000e+00
1, 5,  0.00000e+00
1, 6,  0.00000e+00
1, 7,  0.00000e+00
2, 1,  0.00000e+00
2, 2,  0.00000e+00
2, 3,  0.00000e+00
2, 4,  0.00000e+00
2, 5,  0.00000e+00
2, 6,  0.00000e+00
2, 7,  0.00000e+00
3, 1,  0.00000e+00
3, 2,  0.00000e+00
3, 3,  0.00000e+00
3, 4,  0.00000e+00
3, 5,  0.00000e+00
3, 6,  0.00000e+00
3, 7,  0.00000e+00
4, 1,  0.00000e+00
4, 2,  0.00000e+00
4, 3,  0.00000e+00
4, 4,  0.00000e+00
4, 5,  0.00000e+00
4, 6,  0.00000e+00
4, 7,  0.00000e+00
5, 1,  0.00000e+00
5, 2,  0.00000e+00
5, 3,  0.00000e+00
5, 4,  0.00000e+00
5, 5,  0.00000e+00
5, 6,  0.00000e+00
5, 7,  0.00000e+00
6, 1,  0.00000e+00
6, 2,  0.00000e+00
6, 3,  0.00000e+00
6, 4,  0.00000e+00
6, 5,  0.00000e+00
6, 6,  0.00000e+00
6, 7,  0.00000e+00
7, 1,  0.00000e+00
7, 2,  0.00000e+00
7, 3,  0.00000e+00
7, 4,  0.00000e+00
7, 5,  0.00000e+00
7, 6,  0.00000e+00
7, 7,  0.00000e+00
SET9
 2, EXTF extended function flag
 8.00429, Tm, Brho
 1.998217, By at mid-bend position (NomField)
#Probe position(s) and field(s) (measured during mapping, position unknown)
0, 0, 2.0245 
0, 0, 0
392.46, Amps
 0.064,T stdev between measured and model along beam path
IEE1_ENGEC
-5.13112e-01 
 2.58929e+00 
-5.74257e-01 
 4.94916e-01 
 0.00000e+00 
 0.00000e+00 
-3.51458e-02 
 1.70000e+00 
 2.80000e+00 
 1.71596e-09 
-2.00000e+00 
 2.50000e+00 
IEE2_ENGEC
-5.13112e-01 
 2.58929e+00 
-5.74257e-01 
 4.94916e-01 
 0.00000e+00 
 0.00000e+00 
-3.51458e-02 
 1.70000e+00 
 2.80000e+00 
 1.71596e-09 
-2.00000e+00 
 2.50000e+00 
W_COEFS: i,j,W(i,j)
1, 1,  1.00000e+00
1, 2,  0.00000e+00
1, 3,  0.00000e+00
1, 4,  0.00000e+00
1, 5,  0.00000e+00
1, 6,  0.00000e+00
1, 7,  0.00000e+00
2, 1,  0.00000e+00
2, 2,  0.00000e+00
2, 3,  0.00000e+00
2, 4,  0.00000e+00
2, 5,  0.00000e+00
2, 6,  0.00000e+00
2, 7,  0.00000e+00
3, 1,  0.00000e+00
3, 2,  0.00000e+00
3, 3,  0.00000e+00
3, 4,  0.00000e+00
3, 5,  0.00000e+00
3, 6,  0.00000e+00
3, 7,  0.00000e+00
4, 1,  0.00000e+00
4, 2,  0.00000e+00
4, 3,  0.00000e+00
4, 4,  0.00000e+00
4, 5,  0.00000e+00
4, 6,  0.00000e+00
4, 7,  0.00000e+00
5, 1,  0.00000e+00
5, 2,  0.00000e+00
5, 3,  0.00000e+00
5, 4,  0.00000e+00
5, 5,  0.00000e+00
5, 6,  0.00000e+00
5, 7,  0.00000e+00
6, 1,  0.00000e+00
6, 2,  0.00000e+00
6, 3,  0.00000e+00
6, 4,  0.00000e+00
6, 5,  0.00000e+00
6, 6,  0.00000e+00
6, 7,  0.00000e+00
7, 1,  0.00000e+00
7, 2,  0.00000e+00
7, 3,  0.00000e+00
7, 4,  0.00000e+00
7, 5,  0.00000e+00
7, 6,  0.00000e+00
7, 7,  0.00000e+00
END



