#2020-12 MP--  Ref. FRIB-T40503-TD-001574,,,,,,,,,,,,,,,,,,,,,,,,,,,
#model data \\intranet\files\departments\fribESD\MagnetSystems\Maxwell\FSQ7,,,,,,,,,,,,,,,,,,,,,,,,,,,
#  0.252, [m] pole-tip radius of quadrupole yoke T40303-TD-000917,,,,,,,,,,,,,,,,,,,,,,,,,,
M5_PARAM_TABLE_V01,,,,,,,,,,,,,,,,,,,,,,,,,,,
0.1937, Reference radius to use with coefficients.,,,,,,,,,,,,,,,,,,,,,,,,,,
0.549, yoke length,,,,,,,,,,,,,,,,,,,,,,,,,,
1, IMP order of multipole,,,,,,,,,,,,,,,,,,,,,,,,,,
2, IMP_REF multipole for effective length of M5,,,,,,,,,,,,,,,,,,,,,,,,,,
0, oper. lower limit (field gradient),,,,,,,,,,,,,,,,,,,,,,,,,,
0.022, oper. upper limit (field gradient),,,,,,,,,,,,,,,,,,,,,,,,,,
# i3[A],g1[T],Br(Rwb)[T],LEFF[m], a0i_n2, a0e_n2, a1i_n2, a1e_n2, a2i_n2, a2e_n2, a3i_n2, a3e_n2, a4i_n2, a4e_n2, a5i_n2, a5e_n2, a6i_n2, a6e_n2, a7i_n2, a7e_n2, a8i_n2, a8e_n2, a9i_n2, a9e_n2, a10i_n2, a10e_n2, a11i_n2, a11e_n2 
START table,,,,,,,,,,,,,,,,,,,,,,,,,,,
0,0,0,0.671548,0.175574,0.376178,5.449667424,5.60030857,0,0,0,0,0,0,0,0,0,0,0,0,0,0,0,0,0,0,0,0
4.591299,0.00455,0.00455,0.671548,0.175574,0.376178,5.449667424,5.60030857,0,0,0,0,0,0,0,0,0,0,0,0,0,0,0,0,0,0,0,0
9.19191,0.008853,0.008853,0.664422,0.168874,0.36635,5.499953914,5.62247573,0,0,0,0,0,0,0,0,0,0,0,0,0,0,0,0,0,0,0,0
13.792502,0.01313,0.01313,0.661521,0.162174,0.356523,5.550238762,5.644641247,0,0,0,0,0,0,0,0,0,0,0,0,0,0,0,0,0,0,0,0
18.393084,0.017357,0.017357,0.660512,0.155475,0.346695,5.60052361,5.666808407,0,0,0,0,0,0,0,0,0,0,0,0,0,0,0,0,0,0,0,0
22.993637,0.02151,0.02151,0.65906,0.148775,0.336868,5.650806817,5.688973925,0,0,0,0,0,0,0,0,0,0,0,0,0,0,0,0,0,0,0,0
END,,,,,,,,,,,,,,,,,,,,,,,,,,,
