#2020-09 MP--  Ref. FRIB-T40503-TD-001567,,,,,,,,,,,,,,,,,,,,,,,,,,,
#\\intranet\files\departments\fribESD\MagnetSystems\Maxwell\FSQ7,,,,,,,,,,,,,,,,,,,,,,,,,,,
#  0.252, [m] pole-tip radius of quadrupole yoke T40303-TD-000917,,,,,,,,,,,,,,,,,,,,,,,,,,
M5_PARAM_TABLE_V01,,,,,,,,,,,,,,,,,,,,,,,,,,,
0.1937, Reference radius to use with coefficients.,,,,,,,,,,,,,,,,,,,,,,,,,,
0.549, yoke length (value of quad yoke),,,,,,,,,,,,,,,,,,,,,,,,,,
4, IMP order of multipole,,,,,,,,,,,,,,,,,,,,,,,,,,
2, IMP_REF multipole for effective length of M5,,,,,,,,,,,,,,,,,,,,,,,,,,
0, oper. lower limit (field gradient),,,,,,,,,,,,,,,,,,,,,,,,,,
14.71, oper. upper limit (field gradient),,,,,,,,,,,,,,,,,,,,,,,,,,
# i2[A],g4[T/m^3],Br(Rwb)[T],LEFF[m], a0i, a0e, a1i, a1e, a2i, a2e, a3i, a3e, a4i, a4e, a5i, a5e, a6i, a6e, a7i, a7e, a8i, a8e, a9i, a9e, a10i, a10e, a11i, a11e
START table,,,,,,,,,,,,,,,,,,,,,,,,,,,
0,0,0,0.648957,0.089443,0.089443,10.37307165,10.37307165,0,0,0,0,0,0,0,0,0,0,0,0,0,0,0,0,0,0,0,0
2.59696,2.943339,0.021390904,0.648957,0.089443,0.089443,10.37307165,10.37307165,0,0,0,0,0,0,0,0,0,0,0,0,0,0,0,0,0,0,0,0
7.797661,8.876273,0.064508882,0.647777,0.066635,0.066635,10.43913976,10.43913976,0,0,0,0,0,0,0,0,0,0,0,0,0,0,0,0,0,0,0,0
12.998225,14.71,0.106905866,0.647086,0.060711,0.060711,10.46824565,10.46824565,0,0,0,0,0,0,0,0,0,0,0,0,0,0,0,0,0,0,0,0
END,,,,,,,,,,,,,,,,,,,,,,,,,,,
