#2020-09 MP--  Ref. FRIB-T40503-TD-001567,,,,,,,,,,,,,,,,,,,,,,,,,,,
#\\intranet\files\departments\fribESD\MagnetSystems\Maxwell\FSQ7,,,,,,,,,,,,,,,,,,,,,,,,,,,
#  0.252, [m] pole-tip radius of quadrupole yoke T40303-TD-000917,,,,,,,,,,,,,,,,,,,,,,,,,,
M5_PARAM_TABLE_V01,,,,,,,,,,,,,,,,,,,,,,,,,,,
0.1937, Reference radius to use with coefficients.,,,,,,,,,,,,,,,,,,,,,,,,,,
0.549, yoke length,,,,,,,,,,,,,,,,,,,,,,,,,,
2, IMP order of multipole,,,,,,,,,,,,,,,,,,,,,,,,,,
2, IMP_REF multipole for effective length of M5,,,,,,,,,,,,,,,,,,,,,,,,,,
0, oper. lower limit (field gradient),,,,,,,,,,,,,,,,,,,,,,,,,,
9.203874, oper. upper limit (field gradient),,,,,,,,,,,,,,,,,,,,,,,,,,
# i2[A],g2[T/m],B2(Rwb)[T], L2[m], a0i_n2, a0e_n2, a1i_n2, a1e_n2, a2i_n2, a2e_n2, a3i_n2, a3e_n2, a4i_n2, a4e_n2, a5i_n2, a5e_n2, a6i_n2, a6e_n2, a7i_n2, a7e_n2, a8i_n2, a8e_n2, a9i_n2, a9e_n2, a10i_n2, a10e_n2, a11i_n2, a11e_n2 
START table,,,,,,,,,,,,,,,,,,,,,,,,,,,
0,0,0,0.710351,0.015649,0.09493,5.867777081,6.033244486,-2.257688873,-1.53676867,0.990001632,2.175339016,0,0,0,0,0,0,0,0,0,0,0,0,0,0,0,0
32.09813,1.09373,0.211855501,0.710351,0.015649,0.09493,5.867777081,6.033244486,-2.257688873,-1.53676867,0.990001632,2.175339016,0,0,0,0,0,0,0,0,0,0,0,0,0,0,0,0
64.200053,2.255161,0.436824686,0.709102,0.14361,0.194626,5.799901647,5.946872342,-2.019057285,-1.327195711,0.852424858,1.986492192,0,0,0,0,0,0,0,0,0,0,0,0,0,0,0,0
96.30288,3.386265,0.655919531,0.706402,0.155972,0.19443,5.7592821,5.891229555,-1.780420308,-1.117617362,0.714843661,1.797640944,0,0,0,0,0,0,0,0,0,0,0,0,0,0,0,0
128.418894,4.472562,0.866335259,0.700143,0.109046,0.148179,5.725755585,5.844930331,-1.541683631,-0.90795548,0.577209385,1.608710078,0,0,0,0,0,0,0,0,0,0,0,0,0,0,0,0
160.505458,5.497774,1.064918824,0.689305,0.067301,0.109557,5.664881256,5.771040347,-1.303167911,-0.698484915,0.43969896,1.419951719,0,0,0,0,0,0,0,0,0,0,0,0,0,0,0,0
192.608705,6.44853,1.249080261,0.678605,0.05952,0.100857,5.536876745,5.627091699,-1.064525545,-0.488903872,0.302117763,1.231096048,0,0,0,0,0,0,0,0,0,0,0,0,0,0,0,0
224.717561,7.309543,1.415858479,0.672705,0.076724,0.114116,5.34091144,5.414844103,-0.82584276,-0.279287799,0.164510027,1.042209414,0,0,0,0,0,0,0,0,0,0,0,0,0,0,0,0
256.819542,8.065597,1.562306139,0.670521,0.095911,0.129558,5.161440182,5.228947915,-0.587211172,-0.069714839,0.026933253,0.85336259,0,0,0,0,0,0,0,0,0,0,0,0,0,0,0,0
288.922647,8.606398,1.667059293,0.669966,0.105038,0.105038,5.28849425,5.28849425,0.039034058,0.039034058,0.846280945,0.846280945,0,0,0,0,0,0,0,0,0,0,0,0,0,0,0,0
321.021686,9.181712,1.778497614,0.670068,0.104395,0.104395,5.265333968,5.265333968,0.105838723,0.105838723,0.783218473,0.783218473,0,0,0,0,0,0,0,0,0,0,0,0,0,0,0,0
END,,,,,,,,,,,,,,,,,,,,,,,,,,,
