M5_PARAM_TABLE_V01,,,,,,,,,,,,,,,,,,,,,,,,,,,
0.1016, Reference radius to use with coefficients.,,,,,,,,,,,,,,,,,,,,,,,,,,
0.356, yoke length,,,,,,,,,,,,,,,,,,,,,,,,,,
2, IMP order of multipole,,,,,,,,,,,,,,,,,,,,,,,,,,
2, IMP_REF multipole for effective length of M5,,,,,,,,,,,,,,,,,,,,,,,,,,
0, oper. lower limit (field gradient),,,,,,,,,,,,,,,,,,,,,,,,,,
37.2, oper. upper limit (field gradient),,,,,,,,,,,,,,,,,,,,,,,,,,
# i[A],grad,B(Rwb)[T], Leff[m], a0i, a0e, a1i, a1e, a2i, a2e, a3i, a3e, a4i, a4e, a5i, a5e, a6i, a6e, a7i, a7e, a8i, a8e, a9i, a9e, a10i, a10e, a11i, a11e 
START table,,,,,,,,,,,,,,,,,,,,,,,,,,,
0,0,0,0.4107,0.126651,0.126651,2.54415,2.54415,-0.315208,-0.315208,0.448238,0.448238,-0.108779,-0.108779,6.77E-03,6.77E-03,0,0,0,0,0,0,0,0,0,0,0,0
5.001,3.862204724,0.3924,0.4107,0.126651,0.126651,2.54415,2.54415,-0.315208,-0.315208,0.448238,0.448238,-0.108779,-0.108779,6.77E-03,6.77E-03,0,0,0,0,0,0,0,0,0,0,0,0
9.057,7.153543307,0.7268,0.4107,0.126651,0.126651,2.54415,2.54415,-0.315208,-0.315208,0.448238,0.448238,-0.108779,-0.108779,6.77E-03,6.77E-03,0,0,0,0,0,0,0,0,0,0,0,0
15.149,11.94488189,1.2136,0.4107,0.126651,0.126651,2.54415,2.54415,-0.315208,-0.315208,0.448238,0.448238,-0.108779,-0.108779,6.77E-03,6.77E-03,0,0,0,0,0,0,0,0,0,0,0,0
18.004,14.09448819,1.432,0.4107,0.126651,0.126651,2.54415,2.54415,-0.315208,-0.315208,0.448238,0.448238,-0.108779,-0.108779,6.77E-03,6.77E-03,0,0,0,0,0,0,0,0,0,0,0,0
21.964,16.74409449,1.7012,0.4107,0.126651,0.126651,2.54415,2.54415,-0.315208,-0.315208,0.448238,0.448238,-0.108779,-0.108779,6.77E-03,6.77E-03,0,0,0,0,0,0,0,0,0,0,0,0
24.289,18.05511811,1.8344,0.4107,0.126651,0.126651,2.54415,2.54415,-0.315208,-0.315208,0.448238,0.448238,-0.108779,-0.108779,6.77E-03,6.77E-03,0,0,0,0,0,0,0,0,0,0,0,0
28.576,20.05905512,2.038,0.4107,0.126651,0.126651,2.54415,2.54415,-0.315208,-0.315208,0.448238,0.448238,-0.108779,-0.108779,6.77E-03,6.77E-03,0,0,0,0,0,0,0,0,0,0,0,0
33.998,22.0984252,2.2452,0.4107,0.126651,0.126651,2.54415,2.54415,-0.315208,-0.315208,0.448238,0.448238,-0.108779,-0.108779,6.77E-03,6.77E-03,0,0,0,0,0,0,0,0,0,0,0,0
37.172,23.16535433,2.3536,0.4107,0.126651,0.126651,2.54415,2.54415,-0.315208,-0.315208,0.448238,0.448238,-0.108779,-0.108779,6.77E-03,6.77E-03,0,0,0,0,0,0,0,0,0,0,0,0
END,,,,,,,,,,,,,,,,,,,,,,,,,,,
