#2021-03 MP--  Ref. FRIB-T40503-TD-001575,,,,,,,,,,,,,,,,,,,,,,,,,,,
#model data \\intranet\files\departments\fribESD\MagnetSystems\Maxwell\FSQ7,,,,,,,,,,,,,,,,,,,,,,,,,,,
#  0.252, [m] pole-tip radius of quadrupole yoke T40303-TD-000917,,,,,,,,,,,,,,,,,,,,,,,,,,
M5_PARAM_TABLE_V01,,,,,,,,,,,,,,,,,,,,,,,,,,,
0.1937, Reference radius to use with coefficients.,,,,,,,,,,,,,,,,,,,,,,,,,,
0.549, yoke length,,,,,,,,,,,,,,,,,,,,,,,,,,
3, IMP order of multipole,,,,,,,,,,,,,,,,,,,,,,,,,,
2, IMP_REF multipole for effective length of M5,,,,,,,,,,,,,,,,,,,,,,,,,,
0, oper. lower limit (field gradient),,,,,,,,,,,,,,,,,,,,,,,,,,
5.8, oper. upper limit (field gradient),,,,,,,,,,,,,,,,,,,,,,,,,,
# i3[A],g3[T/m^2],B3(Rwb)[T], L3[m], a0i_n2, a0e_n2, a1i_n2, a1e_n2, a2i_n2, a2e_n2, a3i_n2, a3e_n2, a4i_n2, a4e_n2, a5i_n2, a5e_n2, a6i_n2, a6e_n2, a7i_n2, a7e_n2, a8i_n2, a8e_n2, a9i_n2, a9e_n2, a10i_n2, a10e_n2, a11i_n2, a11e_n2 
START table,,,,,,,,,,,,,,,,,,,,,,,,,,,
0,0,0,0.685456,0.286483,0.286483,8.776791587,8.776791587,0.641143706,0.641143706,-0.019537556,-0.019537556,0,0,0,0,0,0,0,0,0,0,0,0,0,0,0,0
4.591535,1.18048,0.044291244,0.685456,0.286483,0.286483,8.776791587,8.776791587,0.641143706,0.641143706,-0.019537556,-0.019537556,0,0,0,0,0,0,0,0,0,0,0,0,0,0,0,0
9.192298,2.342287,0.087881882,0.683746,0.287925,0.287925,8.717942901,8.717942901,0.880801938,0.880801938,-0.284552983,-0.284552983,0,0,0,0,0,0,0,0,0,0,0,0,0,0,0,0
13.792946,3.490161,0.130949759,0.683085,0.264318,0.264318,8.415143838,8.415143838,1.667944771,1.667944771,5.3737701,5.3737701,0,0,0,0,0,0,0,0,0,0,0,0,0,0,0,0
18.393385,4.650316,0.174478415,0.682675,0.279305,0.279305,8.509454398,8.509454398,1.415511413,1.415511413,2.889072438,2.889072438,0,0,0,0,0,0,0,0,0,0,0,0,0,0,0,0
22.994056,5.83295,0.218850476,0.682568,0.284273,0.284273,8.611219125,8.611219125,1.147018205,1.147018205,0.493689318,0.493689318,0,0,0,0,0,0,0,0,0,0,0,0,0,0,0,0
END,,,,,,,,,,,,,,,,,,,,,,,,,,,
