#2020-01 MP--  Ref. FRIB-T40503-TD-001336,,,,,,,,,,,,,,,,,,,,,,,,,,,
#\\intranet\files\projects\fribmappers_data\FSQ5_S1_2018_07_19,,,,,,,,,,,,,,,,,,,,,,,,,,,
#  0.260, [m] pole-tip radius of quadrupole yoke T40303-TD-000917,,,,,,,,,,,,,,,,,,,,,,,,,,
M5_PARAM_TABLE_V01,,,,,,,,,,,,,,,,,,,,,,,,,,,
0.2, Reference radius to use with coefficients.,,,,,,,,,,,,,,,,,,,,,,,,,,
0.64, yoke length (dummy for now),,,,,,,,,,,,,,,,,,,,,,,,,,
2, IMP order of multipole,,,,,,,,,,,,,,,,,,,,,,,,,,
2, IMP_REF multipole for effective length of M5,,,,,,,,,,,,,,,,,,,,,,,,,,
0, oper. lower limit (field gradient),,,,,,,,,,,,,,,,,,,,,,,,,,
9.301664, oper. upper limit (field gradient),,,,,,,,,,,,,,,,,,,,,,,,,,
# i2[A],g2[T/m],B2(Rm)[T], L2[m], a0i_n2, a0e_n2, a1i_n2, a1e_n2, a2i_n2, a2e_n2, a3i_n2, a3e_n2, a4i_n2, a4e_n2, a5i_n2, a5e_n2, a6i_n2, a6e_n2, a7i_n2, a7e_n2, a8i_n2, a8e_n2, a9i_n2, a9e_n2, a10i_n2, a10e_n2, a11i_n2, a11e_n2 
START table,,,,,,,,,,,,,,,,,,,,,,,,,,,
0,0,0,0.798091,-0.036715,-0.029652,7.157571186,7.0979,-1.475314565,-1.378330939,-1.206861461,-1.177700739,0,0,0,0,0,0,0,0,0,0,0,0,0,0,0,0
10,0.291796,0.0583592,0.798091,-0.036715,-0.029652,7.157571186,7.0979,-1.475314565,-1.378330939,-1.206861461,-1.177700739,0,0,0,0,0,0,0,0,0,0,0,0,0,0,0,0
23,0.669932,0.1339864,0.79787,0.020945,0.019775,7.082550847,7.030101695,-1.369356507,-1.273180121,-1.169890787,-1.140457398,0,0,0,0,0,0,0,0,0,0,0,0,0,0,0,0
36.1,1.05543,0.211086,0.797641,0.064932,0.056738,7.014361017,6.967484746,-1.262585464,-1.167222063,-1.132637709,-1.102926784,0,0,0,0,0,0,0,0,0,0,0,0,0,0,0,0
55,1.617546,0.3235092,0.797277,0.105825,0.090503,6.928808475,6.887167797,-1.108540649,-1.014352198,-1.078888299,-1.048778113,0,0,0,0,0,0,0,0,0,0,0,0,0,0,0,0
72.21,2.133324,0.4266648,0.796872,0.123247,0.104848,6.86360678,6.8242,-0.968270612,-0.875150819,-1.029944639,-0.999474143,0,0,0,0,0,0,0,0,0,0,0,0,0,0,0,0
85,2.517723,0.5035446,0.796484,0.126339,0.10766,6.822542373,6.783538983,-0.864027578,-0.771700661,-0.993572858,-0.962834564,0,0,0,0,0,0,0,0,0,0,0,0,0,0,0,0
120,3.566629,0.7133258,0.794634,0.10653,0.093496,6.737716949,6.697127119,-0.578758977,-0.488603849,-0.894034931,-0.862561411,0,0,0,0,0,0,0,0,0,0,0,0,0,0,0,0
144.01,4.276387,0.8552774,0.792068,0.081832,0.075133,6.695013559,6.654818644,-0.383065211,-0.294401034,-0.825756285,-0.793776384,0,0,0,0,0,0,0,0,0,0,0,0,0,0,0,0
150.01,4.451675,0.890335,0.791175,0.07549,0.070357,6.684889831,6.645488136,-0.334162597,-0.245871876,-0.808695144,-0.776583779,0,0,0,0,0,0,0,0,0,0,0,0,0,0,0,0
180.51,5.325073,1.0650146,0.784885,0.046948,0.048365,6.623740678,6.594384746,-0.085573111,0.000824476,-0.721953072,-0.689208731,0,0,0,0,0,0,0,0,0,0,0,0,0,0,0,0
216.61,6.30829,1.261658,0.775651,0.026652,0.031519,6.487927119,6.472559322,0.208661304,0.292815283,-0.619294086,-0.585785304,0,0,0,0,0,0,0,0,0,0,0,0,0,0,0,0
252.7,7.21741,1.443482,0.769259,0.019773,0.024334,6.256262712,6.224489831,0.50281241,0.584728526,-0.516659444,-0.482391092,0,0,0,0,0,0,0,0,0,0,0,0,0,0,0,0
288.8,8.032835,1.606567,0.766613,0.01684,0.019927,6.045877966,6.014413559,0.797046826,0.876719334,-0.413995589,-0.378967665,0,0,0,0,0,0,0,0,0,0,0,0,0,0,0,0
324.92,8.73455,1.74691,0.765913,0.005394,0.007861,6.022913559,6.017235593,1.091442114,1.168873887,-0.311273304,-0.275485809,0,0,0,0,0,0,0,0,0,0,0,0,0,0,0,0
361.02,9.301664,1.8603328,0.765973,-0.026351,-0.023175,6.205432203,6.17389322,1.385673657,1.460864694,-0.208609449,-0.172062382,0,0,0,0,0,0,0,0,0,0,0,0,0,0,0,0
END,,,,,,,,,,,,,,,,,,,,,,,,,,,
