name,n_order,section,name1(saveset),name2(.fox.var),name1(controls)
FSQ1,2,FS_F1S1,Q_D1013,Q_D1013,FS_F1S1:Q_D1013
WIQ1,2,FS_F1S1,Q_D1013,Q_D1013,FS_F1S1:Q_D1013
,,,,,
FSQ2_S1,2,FS_F1S1,Q_D1024,Q_D1024,FS_F1S1:Q_D1024
FSQ2_S1,3,FS_F1S1,S_D1024,S_D1024,FS_F1S1:S_D1024
FSQ2_S1,4,FS_F1S1,OCT_D1024,OCT_D1024,FS_F1S1:OCT_D1024
WIQ2,2,FS_F1S1,Q_D1024,Q_D1024,FS_F1S1:Q_D1024
WIQ2,3,FS_F1S1,S_D1024,S_D1024,FS_F1S1:S_D1024
WIQ2,4,FS_F1S1,OCT_D1024,OCT_D1024,FS_F1S1:OCT_D1024
,,,,,
FSQ2_S2,2,FS_F1S1,Q_D1035,Q_D1035,FS_F1S1:Q_D1035
FSQ2_S2,3,FS_F1S1,S_D1035,S_D1035,FS_F1S1:S_D1035
FSQ2_S2,4,FS_F1S1,OCT_D1035,OCT_D1035,FS_F1S1:OCT_D1035
WIQ3,2,FS_F1S1,Q_D1035,Q_D1035,FS_F1S1:Q_D1035
WIQ3,3,FS_F1S1,S_D1035,S_D1035,FS_F1S1:S_D1035
WIQ3,4,FS_F1S1,OCT_D1035,OCT_D1035,FS_F1S1:OCT_D1035
,,,,,
FSD1_SCD1,1,FS_F1S1,DV_D1064,DV_D1064,FS_F1S1:DV_D1064
FSD1_SCD2,1,FS_F1S1,DV_D1108,DV_D1108,FS_F1S1:DV_D1108
,,,,,
FSQ5_S1,2,FS_F1S1,Q_D1137,Q_D1137,FS_F1S1:Q_D1137
FSQ5_S1,3,FS_F1S1,S_D1137,S_D1137,FS_F1S1:S_D1137
FSQ5_S1,4,FS_F1S1,OCT_D1137,OCT_D1137,FS_F1S1:OCT_D1137
WIQ4,2,FS_F1S1,Q_D1137,Q_D1137,FS_F1S1:Q_D1137
WIQ4,3,FS_F1S1,S_D1137,S_D1137,FS_F1S1:S_D1137
WIQ4,4,FS_F1S1,OCT_D1137,OCT_D1137,FS_F1S1:OCT_D1137
,,,,,
FSQ5_S3,2,FS_F1S1,Q_D1148,Q_D1148,FS_F1S1:Q_D1148
FSQ5_S3,3,FS_F1S1,S_D1148,S_D1148,FS_F1S1:S_D1148
FSQ5_S3,4,FS_F1S1,OCT_D1148,OCT_D1148,FS_F1S1:OCT_D1148
WIQ5,2,FS_F1S1,Q_D1148,Q_D1148,FS_F1S1:Q_D1148
WIQ5,3,FS_F1S1,S_D1148,S_D1148,FS_F1S1:S_D1148
WIQ5,4,FS_F1S1,OCT_D1148,OCT_D1148,FS_F1S1:OCT_D1148
,,,,,
FSQ5_S2,2,FS_F1S1,Q_D1170,Q_D1170,FS_F1S1:Q_D1170
FSQ5_S2,3,FS_F1S1,S_D1170,S_D1170,FS_F1S1:S_D1170
FSQ5_S2,4,FS_F1S1,OCT_D1170,OCT_D1170,FS_F1S1:OCT_D1170
WIQ7,2,FS_F1S1,Q_D1170,Q_D1170,FS_F1S1:Q_D1170
WIQ7,3,FS_F1S1,S_D1170,S_D1170,FS_F1S1:S_D1170
WIQ7,4,FS_F1S1,OCT_D1170,OCT_D1170,FS_F1S1:OCT_D1170
,,,,,
CIQT1A,2,FS_F1S2,Q_D1195,Q_D1195,FS_F1S2:Q_D1195
CIQT1A,3,FS_F1S2,S_D1195,S_D1195,FS_F1S2:S_D1195
CIQT1A,4,FS_F1S2,OCT_D1195,OCT_D1195,FS_F1S2:OCT_D1195
CIQT1B,2,FS_F1S2,Q_D1207,Q_D1207,FS_F1S2:Q_D1207
CIQT1B,3,FS_F1S2,S_D1207,S_D1207,FS_F1S2:S_D1207
CIQT1B,4,FS_F1S2,OCT_D1207,OCT_D1207,FS_F1S2:OCT_D1207
CIQT1C,2,FS_F1S2,Q_D1218,Q_D1218,FS_F1S2:Q_D1218
CIQT1C,3,FS_F1S2,S_D1218,S_D1218,FS_F1S2:S_D1218
CIQT1C,4,FS_F1S2,OCT_D1218,OCT_D1218,FS_F1S2:OCT_D1218
FSQ7_4a,2,FS_F1S2,Q_D1195,Q_D1195,FS_F1S2:Q_D1195
FSQ7_4a,3,FS_F1S2,S_D1195,S_D1195,FS_F1S2:S_D1195
FSQ7_4a,4,FS_F1S2,OCT_D1195,OCT_D1195,FS_F1S2:OCT_D1195
FSQ8_4,2,FS_F1S2,Q_D1207,Q_D1207,FS_F1S2:Q_D1207
FSQ8_4,3,FS_F1S2,S_D1207,S_D1207,FS_F1S2:S_D1207
FSQ8_4,4,FS_F1S2,OCT_D1207,OCT_D1207,FS_F1S2:OCT_D1207
FSQ7_4b,2,FS_F1S2,Q_D1218,Q_D1218,FS_F1S2:Q_D1218
FSQ7_4b,3,FS_F1S2,S_D1218,S_D1218,FS_F1S2:S_D1218
FSQ7_4b,4,FS_F1S2,OCT_D1218,OCT_D1218,FS_F1S2:OCT_D1218
,,,,,
FSD2_SCD3,1,FS_F1S2,DV_D1246,DV_D1246,FS_F1S2:DV_D1246
,,,,,
CIQT2A,2,FS_F1S2,Q_D1288,Q_D1288,FS_F1S2:Q_D1288
CIQT2A,3,FS_F1S2,S_D1288,S_D1288,FS_F1S2:S_D1288
CIQT2A,4,FS_F1S2,OCT_D1288,OCT_D1288,FS_F1S2:OCT_D1288
CIQT2B,2,FS_F1S2,Q_D1299,Q_D1299,FS_F1S2:Q_D1299
CIQT2B,3,FS_F1S2,S_D1299,S_D1299,FS_F1S2:S_D1299
CIQT2B,4,FS_F1S2,OCT_D1299,OCT_D1299,FS_F1S2:OCT_D1299
CIQT2C,2,FS_F1S2,Q_D1311,Q_D1311,FS_F1S2:Q_D1311
CIQT2C,3,FS_F1S2,S_D1311,S_D1311,FS_F1S2:S_D1311
CIQT2C,4,FS_F1S2,OCT_D1311,OCT_D1311,FS_F1S2:OCT_D1311
FSQ7_5a,2,FS_F1S2,Q_D1288,Q_D1288,FS_F1S2:Q_D1288
FSQ7_5a,3,FS_F1S2,S_D1288,S_D1288,FS_F1S2:S_D1288
FSQ7_5a,4,FS_F1S2,OCT_D1288,OCT_D1288,FS_F1S2:OCT_D1288
FSQ8_5,2,FS_F1S2,Q_D1299,Q_D1299,FS_F1S2:Q_D1299
FSQ8_5,3,FS_F1S2,S_D1299,S_D1299,FS_F1S2:S_D1299
FSQ8_5,4,FS_F1S2,OCT_D1299,OCT_D1299,FS_F1S2:OCT_D1299
FSQ7_5b,2,FS_F1S2,Q_D1311,Q_D1311,FS_F1S2:Q_D1311
FSQ7_5b,3,FS_F1S2,S_D1311,S_D1311,FS_F1S2:S_D1311
FSQ7_5b,4,FS_F1S2,OCT_D1311,OCT_D1311,FS_F1S2:OCT_D1311
,,,,,
,,,,,
CIQT3A,2,FS_F1S2,Q_D1338,Q_D1338,FS_F1S2:Q_D1338
CIQT3A,3,FS_F1S2,S_D1338,S_D1338,FS_F1S2:S_D1338
CIQT3A,4,FS_F1S2,OCT_D1338,OCT_D1338,FS_F1S2:OCT_D1338
CIQT3B,2,FS_F1S2,Q_D1349,Q_D1349,FS_F1S2:Q_D1349
CIQT3B,3,FS_F1S2,S_D1349,S_D1349,FS_F1S2:S_D1349
CIQT3B,4,FS_F1S2,OCT_D1349,OCT_D1349,FS_F1S2:OCT_D1349
CIQT3C,2,FS_F1S2,Q_D1361,Q_D1361,FS_F1S2:Q_D1361
CIQT3C,3,FS_F1S2,S_D1361,S_D1361,FS_F1S2:S_D1361
CIQT3C,4,FS_F1S2,OCT_D1361,OCT_D1361,FS_F1S2:OCT_D1361
FSQ7_6a,2,FS_F1S2,Q_D1338,Q_D1338,FS_F1S2:Q_D1338
FSQ7_6a,3,FS_F1S2,S_D1338,S_D1338,FS_F1S2:S_D1338
FSQ7_6a,4,FS_F1S2,OCT_D1338,OCT_D1338,FS_F1S2:OCT_D1338
FSQ8_6,2,FS_F1S2,Q_D1349,Q_D1349,FS_F1S2:Q_D1349
FSQ8_6,3,FS_F1S2,S_D1349,S_D1349,FS_F1S2:S_D1349
FSQ8_6,4,FS_F1S2,OCT_D1349,OCT_D1349,FS_F1S2:OCT_D1349
FSQ7_6b,2,FS_F1S2,Q_D1361,Q_D1361,FS_F1S2:Q_D1361
FSQ7_6b,3,FS_F1S2,S_D1361,S_D1361,FS_F1S2:S_D1361
FSQ7_6b,4,FS_F1S2,OCT_D1361,OCT_D1361,FS_F1S2:OCT_D1361
,,,,,
FSD2_SCD4,1,FS_F1S2,DV_D1402,DV_D1402,FS_F1S2:DV_D1402
,,,,,
CIQT4A,2,FS_F1S2,Q_D1430,Q_D1430,FS_F1S2:Q_D1430
CIQT4A,3,FS_F1S2,S_D1430,S_D1430,FS_F1S2:S_D1430
CIQT4A,4,FS_F1S2,OCT_D1430,OCT_D1430,FS_F1S2:OCT_D1430
CIQT4B,2,FS_F1S2,Q_D1441,Q_D1441,FS_F1S2:Q_D1441
CIQT4B,3,FS_F1S2,S_D1441,S_D1441,FS_F1S2:S_D1441
CIQT4B,4,FS_F1S2,OCT_D1441,OCT_D1441,FS_F1S2:OCT_D1441
CIQT4C,2,FS_F1S2,Q_D1453,Q_D1453,FS_F1S2:Q_D1453
CIQT4C,3,FS_F1S2,S_D1453,S_D1453,FS_F1S2:S_D1453
CIQT4C,4,FS_F1S2,OCT_D1453,OCT_D1453,FS_F1S2:OCT_D1453
FSQ9_7a,2,FS_F1S2,Q_D1430,Q_D1430,FS_F1S2:Q_D1430
FSQ9_7a,3,FS_F1S2,S_D1430,S_D1430,FS_F1S2:S_D1430
FSQ9_7a,4,FS_F1S2,OCT_D1430,OCT_D1430,FS_F1S2:OCT_D1430
FSQ10_7,2,FS_F1S2,Q_D1441,Q_D1441,FS_F1S2:Q_D1441
FSQ10_7,3,FS_F1S2,S_D1441,S_D1441,FS_F1S2:S_D1441
FSQ10_7,4,FS_F1S2,OCT_D1441,OCT_D1441,FS_F1S2:OCT_D1441
FSQ9_7b,2,FS_F1S2,Q_D1453,Q_D1453,FS_F1S2:Q_D1453
FSQ9_7b,3,FS_F1S2,S_D1453,S_D1453,FS_F1S2:S_D1453
FSQ9_7b,4,FS_F1S2,OCT_D1453,OCT_D1453,FS_F1S2:OCT_D1453
,,,,,
Q36x10_A,2,FS_F1S2,Q_D1430,Q_D1430,FS_F1S2:Q_D1430
Q36x10_B,2,FS_F1S2,Q_D1436,Q_D1436,FS_F1S2:Q_D1436
Q36x10_C,2,FS_F1S2,Q_D1446,Q_D1446,FS_F1S2:Q_D1446
Q36x10_D,2,FS_F1S2,Q_D1452,Q_D1452,FS_F1S2:Q_D1452
,,,,,
FSQB_1,2,FS_F2S1,Q_D1476,Q_D1476,FS_F2S1:Q_D1476
FSQB_1,3,FS_F2S1,S_D1476,S_D1476,FS_F2S1:S_D1476
FSQB_1,4,FS_F2S1,OCT_D1476,OCT_D1476,FS_F2S1:OCT_D1476
FSQE_1,2,FS_F2S1,Q_D1484,Q_D1484,FS_F2S1:Q_D1484
FSQD_1,2,FS_F2S1,Q_D1492,Q_D1492,FS_F2S1:Q_D1492
FSDA_1,1,FS_F2S1,DH_D1513,DH_D1513,FS_F2S1:DH_D1513
FSQB_2a,2,FS_F2S1,Q_D1538,Q_D1538,FS_F2S1:Q_D1538
FSQB_2a,3,FS_F2S1,S_D1538,S_D1538,FS_F2S1:S_D1538
FSQB_2a,4,FS_F2S1,OCT_D1538,OCT_D1538,FS_F2S1:OCT_D1538
FSQC_2,2,FS_F2S1,Q_D1545,Q_D1545,FS_F2S1:Q_D1545
FSQC_2,3,FS_F2S1,S_D1545,S_D1545,FS_F2S1:S_D1545
FSQC_2,4,FS_F2S1,OCT_D1545,OCT_D1545,FS_F2S1:OCT_D1545
FSQB_2b,2,FS_F2S1,Q_D1553,Q_D1553,FS_F2S1:Q_D1553
FSQB_2b,3,FS_F2S1,S_D1553,S_D1553,FS_F2S1:S_D1553
FSQB_2b,4,FS_F2S1,OCT_D1553,OCT_D1553,FS_F2S1:OCT_D1553
FSQB_3a,2,FS_F2S2,Q_D1573,Q_D1573,FS_F2S2:Q_D1573
FSQB_3a,3,FS_F2S2,S_D1573,S_D1573,FS_F2S2:S_D1573
FSQB_3a,4,FS_F2S2,OCT_D1573,OCT_D1573,FS_F2S2:OCT_D1573
FSQC_3,2,FS_F2S2,Q_D1580,Q_D1580,FS_F2S2:Q_D1580
FSQC_3,3,FS_F2S2,S_D1580,S_D1580,FS_F2S2:S_D1580
FSQC_3,4,FS_F2S2,OCT_D1580,OCT_D1580,FS_F2S2:OCT_D1580
FSQB_3b,2,FS_F2S2,Q_D1588,Q_D1588,FS_F2S2:Q_D1588
FSQB_3b,3,FS_F2S2,S_D1588,S_D1588,FS_F2S2:S_D1588
FSQB_3b,4,FS_F2S2,OCT_D1588,OCT_D1588,FS_F2S2:OCT_D1588
FSDA_2,1,FS_F2S2,DH_D1608,DH_D1608,FS_F2S2:DH_D1608
FSQA_4a,2,FS_F2S2,Q_D1629,Q_D1629,FS_F2S2:Q_D1629
FSQA_4b,2,FS_F2S2,Q_D1639,Q_D1639,FS_F2S2:Q_D1639
FSQB_4,2,FS_F2S2,Q_D1646,Q_D1646,FS_F2S2:Q_D1646
FSQB_4,3,FS_F2S2,S_D1646,S_D1646,FS_F2S2:S_D1646
FSQB_4,4,FS_F2S2,OCT_D1646,OCT_D1646,FS_F2S2:OCT_D1646
FSQB_5,2,FS_F3S1,Q_D1674,Q_D1674,FS_F3S1:Q_D1674
FSQB_5,3,FS_F3S1,S_D1674,S_D1674,FS_F3S1:S_D1674
FSQB_5,4,FS_F3S1,OCT_D1674,OCT_D1674,FS_F3S1:OCT_D1674
FSQA_5a,2,FS_F3S1,Q_D1682,Q_D1682,FS_F3S1:Q_D1682
FSQA_5b,2,FS_F3S1,Q_D1691,Q_D1691,FS_F3S1:Q_D1691
FSDA_3,1,FS_F3S1,DH_D1712,DH_D1712,FS_F3S1:DH_D1712
FSQB_6a,2,FS_F3S1,Q_D1733,Q_D1733,FS_F3S1:Q_D1733
FSQB_6a,3,FS_F3S1,S_D1733,S_D1733,FS_F3S1:S_D1733
FSQB_6a,4,FS_F3S1,OCT_D1733,OCT_D1733,FS_F3S1:OCT_D1733
FSQC_6,2,FS_F3S1,Q_D1740,Q_D1740,FS_F3S1:Q_D1740
FSQC_6,3,FS_F3S1,S_D1740,S_D1740,FS_F3S1:S_D1740
FSQC_6,4,FS_F3S1,OCT_D1740,OCT_D1740,FS_F3S1:OCT_D1740
FSQB_6b,2,FS_F3S1,Q_D1748,Q_D1748,FS_F3S1:Q_D1748
FSQB_6b,3,FS_F3S1,S_D1748,S_D1748,FS_F3S1:S_D1748
FSQB_6b,4,FS_F3S1,OCT_D1748,OCT_D1748,FS_F3S1:OCT_D1748
FSQB_7a,2,FS_F3S2,Q_D1767,Q_D1767,FS_F3S2:Q_D1767
FSQB_7a,3,FS_F3S2,S_D1767,S_D1767,FS_F3S2:S_D1767
FSQB_7a,4,FS_F3S2,OCT_D1767,OCT_D1767,FS_F3S2:OCT_D1767
FSQC_7,2,FS_F3S2,Q_D1775,Q_D1775,FS_F3S2:Q_D1775
FSQC_7,3,FS_F3S2,S_D1775,S_D1775,FS_F3S2:S_D1775
FSQC_7,4,FS_F3S2,OCT_D1775,OCT_D1775,FS_F3S2:OCT_D1775
FSQB_7b,2,FS_F3S2,Q_D1783,Q_D1783,FS_F3S2:Q_D1783
FSQB_7b,3,FS_F3S2,S_D1783,S_D1783,FS_F3S2:S_D1783
FSQB_7b,4,FS_F3S2,OCT_D1783,OCT_D1783,FS_F3S2:OCT_D1783
FSDA_4,1,FS_F3S2,DH_D1807,DH_D1807,FS_F3S2:DH_D1807
FSQD_8,2,FS_F3S2,Q_D1827,Q_D1827,FS_F3S2:Q_D1827
FSQE_8,2,FS_F3S2,Q_D1835,Q_D1835,FS_F3S2:Q_D1835
FSQB_8,2,FS_F3S2,Q_D1843,Q_D1843,FS_F3S2:Q_D1843
FSQB_8,3,FS_F3S2,S_D1843,S_D1843,FS_F3S2:S_D1843
FSQB_8,4,FS_F3S2,OCT_D1843,OCT_D1843,FS_F3S2:OCT_D1843
Q_D2002,2,RBT_BTS11,Q_D2002,Q_D2002,RBT_BTS11:Q_D2002
Q_D2007,2,RBT_BTS11,Q_D2007,Q_D2007,RBT_BTS11:Q_D2007
DH_D2019,1,RBT_BTS11,DH_D2019,DH_D2019,RBT_BTS11:DH_D2019
Q_D2036,2,RBT_BTS12,Q_D2036,Q_D2036,RBT_BTS12:Q_D2036
Q_D2040,2,RBT_BTS12,Q_D2040,Q_D2040,RBT_BTS12:Q_D2040
Q_D2046,2,RBT_BTS12,Q_D2046,Q_D2046,RBT_BTS12:Q_D2046
Q_D2065,2,RBT_BTS12,Q_D2065,Q_D2065,RBT_BTS12:Q_D2065
Q_D2071,2,RBT_BTS12,Q_D2071,Q_D2071,RBT_BTS12:Q_D2071
Q_D2091,2,RBT_BTS12,Q_D2091,Q_D2091,RBT_BTS12:Q_D2091
Q_D2097,2,RBT_BTS12,Q_D2097,Q_D2097,RBT_BTS12:Q_D2097
Q_D2103,2,RBT_BTS12,Q_D2103,Q_D2103,RBT_BTS12:Q_D2103
DH_D2115,1,RBT_BTS12,DH_D2115,DH_D2115,RBT_BTS12:DH_D2115
Q_D2131,2,RBT_BTS13,Q_D2131,Q_D2131,RBT_BTS13:Q_D2131
Q_D2137,2,RBT_BTS13,Q_D2137,Q_D2137,RBT_BTS13:Q_D2137
Q_D2145,2,RBT_BTS13,Q_D2145,Q_D2145,RBT_BTS13:Q_D2145
Q_D2151,2,RBT_BTS13,Q_D2151,Q_D2151,RBT_BTS13:Q_D2151
DH_D2168,1,RBT_BTS13,DH_D2168,DH_D2168,RBT_BTS13:DH_D2168
Q_D2188,2,RBT_BTS14,Q_D2188,Q_D2188,RBT_BTS14:Q_D2188
TBD_Q36x10,2,RBT_BTS14,Q_D2194,Q_D2194,RBT_BTS14:Q_D2194
TBD_Q36x10,2,RBT_BTS14,Q_D2242,Q_D2242,RBT_BTS14:Q_D2242
TBD_Q36x10,2,RBT_BTS14,Q_D2248,Q_D2248,RBT_BTS14:Q_D2248
TBD_D120x7-DH,1,RBT_BTS14,DH_D2268,DH_D2268,RBT_BTS14:DH_D2268
TBD_Q36x10,2,RBT_BTS31,Q_D2290,Q_D2290,RBT_BTS31:Q_D2290
TBD_Q36x10,2,RBT_BTS31,Q_D2296,Q_D2296,RBT_BTS31:Q_D2296
TBD_Q36x10,2,RBT_BTS31,Q_D2325,Q_D2325,RBT_BTS31:Q_D2325
TBD_Q36x10,2,RBT_BTS31,Q_D2331,Q_D2331,RBT_BTS31:Q_D2331
TBD_Q36x17,2,RBT_BTS32,Q_D2347,Q_D2347,RBT_BTS32:Q_D2347
TBD_Q36x17,2,RBT_BTS32,Q_D2353,Q_D2353,RBT_BTS32:Q_D2353
TBD_Q36x17,2,RBT_BTS32,Q_D2359,Q_D2359,RBT_BTS32:Q_D2359
TBD_0,1,RBT_BTS32,DV_D2374,DV_D2374,RBT_BTS32:DV_D2374
TBD_0,1,RBT_BTS32,DV_D2393,DV_D2393,RBT_BTS32:DV_D2393
TBD_Q36x17,2,RBT_BTS32,Q_D2409,Q_D2409,RBT_BTS32:Q_D2409
TBD_Q36x17,2,RBT_BTS32,Q_D2415,Q_D2415,RBT_BTS32:Q_D2415
TBD_Q36x17,2,RBT_BTS32,Q_D2421,Q_D2421,RBT_BTS32:Q_D2421
TBD_Q36x17,2,RBT_BTS33,Q_D2441,Q_D2441,RBT_BTS33:Q_D2441
TBD_Q36x17,2,RBT_BTS33,Q_D2447,Q_D2447,RBT_BTS33:Q_D2447
TBD_Q36x17,2,RBT_BTS33,Q_D2453,Q_D2453,RBT_BTS33:Q_D2453
TBD_0,1,RBT_BTS33,DV_D2469,DV_D2469,RBT_BTS33:DV_D2469
TBD_0,1,RBT_BTS33,DV_D2488,DV_D2488,RBT_BTS33:DV_D2488
TBD_Q36x17,2,RBT_BTS33,Q_D2504,Q_D2504,RBT_BTS33:Q_D2504
TBD_Q36x17,2,RBT_BTS33,Q_D2510,Q_D2510,RBT_BTS33:Q_D2510
TBD_Q36x17,2,RBT_BTS33,Q_D2516,Q_D2516,RBT_BTS33:Q_D2516
TBD_Q36x17,2,RBT_BTS33,Q_D2525,Q_D2525,RBT_BTS33:Q_D2525
TBD_Q36x17,2,RBT_BTS33,Q_D2531,Q_D2531,RBT_BTS33:Q_D2531
TBD_Q36x17,2,RBT_BTS33,Q_D2537,Q_D2537,RBT_BTS33:Q_D2537
TBD_0,2,RBT_BTS34,Q_D2566,Q_D2566,RBT_BTS34:Q_D2566
TBD_0,2,RBT_BTS34,Q_D2572,Q_D2572,RBT_BTS34:Q_D2572
TBD_0,3,RBT_BTS34,S_D2572,S_D2572,RBT_BTS34:S_D2572
TBD_0,1,RBT_BTS34,DV_D2597,DV_D2597,RBT_BTS34:DV_D2597
TBD_0,1,RBT_BTS34,DV_D2648,DV_D2648,RBT_BTS34:DV_D2648
TBD_D120x7-DH,1,RBT_BTS11,DH_D2019,DH_D2019,RBT_BTS11:DH_D2019
TBD_D120x7-DH,1,RBT_BTS11,DH_D2019,DH_D2019,RBT_BTS11:DH_D2019
TBD_D120x7-DH,1,RBT_BTS13,DH_D2168,DH_D2168,RBT_BTS13:DH_D2168
TBD_Q36x10,2,RBT_BTS51,Q_D2193,Q_D2193,RBT_BTS51:Q_D2193
TBD_Q36x10,2,RBT_BTS51,Q_D2198,Q_D2198,RBT_BTS51:Q_D2198
TBD_Q36x10,2,RBT_BTS51,Q_D2218,Q_D2218,RBT_BTS51:Q_D2218
TBD_Q36x10,2,RBT_BTS51,Q_D2224,Q_D2224,RBT_BTS51:Q_D2224
TBD_Q36x10,2,RBT_BTS52,Q_D2288,Q_D2288,RBT_BTS52:Q_D2288
TBD_Q36x10,2,RBT_BTS52,Q_D2293,Q_D2293,RBT_BTS52:Q_D2293
TBD_0,2,RBT_BTS53,Q_D2343,Q_D2343,RBT_BTS53:Q_D2343
TBD_Q36x10,2,RBT_BTS53,Q_D2348,Q_D2348,RBT_BTS53:Q_D2348
TBD_0,2,RBT_BTS53,Q_D2354,Q_D2354,RBT_BTS53:Q_D2354
,,,,,
,,,,,
Q_D2315,,RBT_BTS41,Q_D2315,Q_D2315,RBT_BTS41:Q_D2315
Q_D2321,,RBT_BTS41,Q_D2321,Q_D2321,RBT_BTS41:Q_D2321
,,,,,
,,,,,
,,,,,
,,,,,
Q_D2408,,RBT_BTS44,Q_D2408,Q_D2408,RBT_BTS44:Q_D2408
Q_D2414,,RBT_BTS44,Q_D2414,Q_D2414,RBT_BTS44:Q_D2414
Q_D2420,,RBT_BTS44,Q_D2420,Q_D2420,RBT_BTS44:Q_D2420
BTS44_D2462,2,RBT_BTS44,Q_D2462,Q_D2462,RBT_BTS44:Q_D2462
BTS44_D2462,3,RBT_BTS44,S_D2462,S_D2462,RBT_BTS44:S_D2462
BTS44_D2462,4,RBT_BTS44,OCT_D2462,OCT_D2462,RBT_BTS44:OCT_D2462
BTS44_D2468,2,RBT_BTS44,Q_D2468,Q_D2468,RBT_BTS44:Q_D2468
BTS44_D2468,3,RBT_BTS44,S_D2468,S_D2468,RBT_BTS44:S_D2468
BTS44_D2468,4,RBT_BTS44,OCT_D2468,OCT_D2468,RBT_BTS44:OCT_D2468
BTS44_D2474,2,RBT_BTS44,Q_D2474,Q_D2474,RBT_BTS44:Q_D2474
BTS44_D2474,3,RBT_BTS44,S_D2474,S_D2474,RBT_BTS44:S_D2474
BTS44_D2474,4,RBT_BTS44,OCT_D2474,OCT_D2474,RBT_BTS44:OCT_D2474
END