# (name of simulation file), (date of creation or change)
# (Notes and explanations regarding the simulation and other goes here)
#
# Below are field gradients for each  magnetic beam rigidity (Brho),
#
#
# Format of data described as follows:,
#  (Lines starting with # are comments. Values are comma delimited.),
# First non-comment row is string that signifies format version
# Next row has column names and Brho values [T-m] corresponding to field settings,
# Rows that follow have element name; radii R [m]; n-multipole order; gradients at Brho1; Brho2; etc.,
# Definition of gradient:  GRAD = B-field/R^(n-1)  =>  field gradient [T/m^(n-1)]; n=1 dipole; n=2 quad; etc.,
#
#       R = bend radius for n=1; multipole reference radius R for n>1   (referred to as pole-tip radius in COSY manual),
# name; radius; multipole order; Brho1; Brho2; etc.,
#
#-----
FORMAT_V1
name,R[m],n_order,4.006500
FS_F1S1:Q_D1013,0.104000,2,312.495409
FS_F1S1:Q_D1024,0.130000,2,-159.998331
FS_F1S1:S_D1024,0.130000,3,-8.048059
FS_F1S1:OCT_D1024,0.130000,4,0.614148
FS_F1S1:Q_D1035,0.130000,2,106.158296
FS_F1S1:S_D1035,0.130000,3,11.495641
FS_F1S1:OCT_D1035,0.130000,4,0.762164
FS_F1S1:Q_D1137,0.200000,2,127.535983
FS_F1S1:S_D1137,0.200000,3,21.916792
FS_F1S1:OCT_D1137,0.200000,4,2.062000
FS_F1S1:Q_D1148,0.200000,2,-150.056449
FS_F1S1:S_D1148,0.200000,3,-15.899884
FS_F1S1:OCT_D1148,0.200000,4,4.193877
FS_F1S1:Q_D1170,0.200000,2,83.994096
FS_F1S1:S_D1170,0.200000,3,0.000000
FS_F1S1:OCT_D1170,0.200000,4,0.000000
FS_F1S2:Q_D1195,0.193700,2,110.630587
FS_F1S2:S_D1195,0.193700,3,9.033697
FS_F1S2:OCT_D1195,0.193700,4,1.909903
FS_F1S2:Q_D1207,0.193700,2,-136.480919
FS_F1S2:S_D1207,0.193700,3,-7.272544
FS_F1S2:OCT_D1207,0.193700,4,-2.246199
FS_F1S2:Q_D1218,0.193700,2,106.105572
FS_F1S2:S_D1218,0.193700,3,6.749363
FS_F1S2:OCT_D1218,0.193700,4,1.486319
FS_F1S2:Q_D1288,0.193700,2,20.515690
FS_F1S2:S_D1288,0.193700,3,6.063010
FS_F1S2:OCT_D1288,0.193700,4,1.225151
FS_F1S2:Q_D1299,0.193700,2,-79.903794
FS_F1S2:S_D1299,0.193700,3,-4.706009
FS_F1S2:OCT_D1299,0.193700,4,-1.836873
FS_F1S2:Q_D1311,0.193700,2,53.709550
FS_F1S2:S_D1311,0.193700,3,2.589574
FS_F1S2:OCT_D1311,0.193700,4,2.568690
FS_F1S2:Q_D1338,0.193700,2,22.353214
FS_F1S2:S_D1338,0.193700,3,-0.249222
FS_F1S2:OCT_D1338,0.193700,4,-2.491421
FS_F1S2:Q_D1349,0.193700,2,-61.493393
FS_F1S2:S_D1349,0.193700,3,-0.450551
FS_F1S2:OCT_D1349,0.193700,4,-1.146311
FS_F1S2:Q_D1361,0.193700,2,33.604573
FS_F1S2:S_D1361,0.193700,3,-1.015651
FS_F1S2:OCT_D1361,0.193700,4,0.320740
FS_F1S2:Q_D1430,0.150000,2,27.277382
FS_F1S2:S_D1430,0.150000,3,-1.674647
FS_F1S2:OCT_D1430,0.150000,4,1.256409
FS_F1S2:Q_D1441,0.150000,2,-61.583014
FS_F1S2:S_D1441,0.150000,3,2.260322
FS_F1S2:OCT_D1441,0.150000,4,-1.048943
FS_F1S2:Q_D1453,0.150000,2,35.843655
FS_F1S2:S_D1453,0.150000,3,-0.108247
FS_F1S2:OCT_D1453,0.150000,4,0.939701
name,R[m],n_order,2.989195
