# (name of simulation file), (date of creation or change)
# (Notes and explanations regarding the simulation and other goes here)
#
# Below are field gradients for each  magnetic beam rigidity (Brho),
#
#
# Format of data described as follows:,
#  (Lines starting with # are comments. Values are comma delimited.),
# First non-comment row is string that signifies format version
# Next row has column names and Brho values [T-m] corresponding to field settings,
# Rows that follow have element name; radii R [m]; n-multipole order; gradients at Brho1; Brho2; etc.,
# Definition of gradient:  GRAD = B-field/R^(n-1)  =>  field gradient [T/m^(n-1)]; n=1 dipole; n=2 quad; etc.,
#
#       R = bend radius for n=1; multipole reference radius R for n>1   (referred to as pole-tip radius in COSY manual),
# name; radius; multipole order; Brho1; Brho2; etc.,
#
#-----
FORMAT_V1
name,R[m],n_order,4.006500
FS_F1S1:Q_D1013,0.104000,2,4.682008
FS_F1S1:Q_D1024,0.130000,2,-6.188624
FS_F1S1:S_D1024,0.130000,3,-1.616454
FS_F1S1:OCT_D1024,0.130000,4,0.989613
FS_F1S1:Q_D1035,0.130000,2,4.110905
FS_F1S1:S_D1035,0.130000,3,2.297145
FS_F1S1:OCT_D1035,0.130000,4,1.228119
FS_F1S1:DV_D1064,4.000000,1,1.001625
FS_F1S1:DV_D1108,4.000000,1,-1.001625
FS_F1S1:Q_D1137,0.200000,2,3.790638
FS_F1S1:S_D1137,0.200000,3,2.805627
FS_F1S1:OCT_D1137,0.200000,4,1.919609
FS_F1S1:Q_D1148,0.200000,2,-4.453028
FS_F1S1:S_D1148,0.200000,3,-2.027312
FS_F1S1:OCT_D1148,0.200000,4,3.562067
FS_F1S1:Q_D1170,0.200000,2,2.489289
FS_F1S1:S_D1170,0.200000,3,0.000000
FS_F1S1:OCT_D1170,0.200000,4,0.000000
FS_F1S2:Q_D1195,0.193700,2,3.877172
FS_F1S2:S_D1195,0.193700,3,2.255196
FS_F1S2:OCT_D1195,0.193700,4,2.164644
FS_F1S2:Q_D1207,0.193700,2,-4.244265
FS_F1S2:S_D1207,0.193700,3,-1.849958
FS_F1S2:OCT_D1207,0.193700,4,-2.565470
FS_F1S2:Q_D1218,0.193700,2,3.727474
FS_F1S2:S_D1218,0.193700,3,1.688078
FS_F1S2:OCT_D1218,0.193700,4,1.708878
FS_F1S2:DV_D1246,4.000000,1,-0.747299
FS_F1S2:Q_D1288,0.193700,2,0.730079
FS_F1S2:S_D1288,0.193700,3,1.547911
FS_F1S2:OCT_D1288,0.193700,4,1.428064
FS_F1S2:Q_D1299,0.193700,2,-2.496152
FS_F1S2:S_D1299,0.193700,3,-1.189549
FS_F1S2:OCT_D1299,0.193700,4,-2.087569
FS_F1S2:Q_D1311,0.193700,2,1.876735
FS_F1S2:S_D1311,0.193700,3,0.664508
FS_F1S2:OCT_D1311,0.193700,4,2.840600
FS_F1S2:Q_D1338,0.193700,2,0.775391
FS_F1S2:S_D1338,0.193700,3,-0.064075
FS_F1S2:OCT_D1338,0.193700,4,-2.886633
FS_F1S2:Q_D1349,0.193700,2,-1.921735
FS_F1S2:S_D1349,0.193700,3,-0.115254
FS_F1S2:OCT_D1349,0.193700,4,-1.326431
FS_F1S2:Q_D1361,0.193700,2,1.168714
FS_F1S2:S_D1361,0.193700,3,-0.262120
FS_F1S2:OCT_D1361,0.193700,4,0.371096
FS_F1S2:DV_D1402,4.000000,1,0.747299
FS_F1S2:Q_D1430,0.150000,2,1.401064
FS_F1S2:S_D1430,0.150000,3,-0.637898
FS_F1S2:OCT_D1430,0.150000,4,4.154896
FS_F1S2:Q_D1441,0.150000,2,-3.130229
FS_F1S2:S_D1441,0.150000,3,0.863932
FS_F1S2:OCT_D1441,0.150000,4,-2.377538
FS_F1S2:Q_D1453,0.150000,2,1.836317
FS_F1S2:S_D1453,0.150000,3,-0.041646
FS_F1S2:OCT_D1453,0.150000,4,3.150441
name,R[m],n_order,2.989195
