#MP 2014-10 Fit to TOSCA field model.
#version tag:
MSS_V01
 4.000000, Design bend radius
 50.000000, Bend angle
 0.100000, Half-gap
 0.716200, Entrance edge angle
 0, Entrance curvature
 0.716200, Exit edge angle
 0, Exit curvature
 2, Number of probe positions
SET1
 2, EXTF extended function flag
 1.989416, Tm, Brho=By*Rdipole optimum
 0.497354, By at mid-bend position (NomField)
#Probe position(s) and field(s) (Only placeholder for now)
0, 0, 0 
0, 0, 0 
 0, Amps
 0.000572, sqrtRSS for residual of data to ROOT_MSS model
IEE1_ENGEC
-2.80727e+00 
 3.46754e+00 
 1.08230e-01 
 6.65584e-01 
-5.13838e-01 
 8.77456e-02 
-5.61080e-02 
 3.04837e-04 
 2.34467e-01 
-4.07451e-01 
 4.21530e-01 
 4.05737e-01 
IEE2_ENGEC
-2.80727e+00 
 3.46754e+00 
 1.08230e-01 
 6.65584e-01 
-5.13838e-01 
 8.77456e-02 
-5.61080e-02 
 3.04837e-04 
 2.34467e-01 
-4.07451e-01 
 4.21530e-01 
 4.05737e-01 
W_COEFS: i,j,W(i,j)
1, 1,  0.9698853073543635
1, 2,  0.00000e+00
1, 3,  2.07739e-04
1, 4,  0.00000e+00
1, 5, -4.16322e-02
1, 6,  0.00000e+00
1, 7, -3.76098e-01
2, 1,  4.68959e-04
2, 2,  0.00000e+00
2, 3, -1.83139e-02
2, 4,  0.00000e+00
2, 5, -2.57748e-01
2, 6,  0.00000e+00
2, 7,  3.34033e+00
3, 1,  2.41477e-02
3, 2,  0.00000e+00
3, 3, -3.38109e-02
3, 4,  0.00000e+00
3, 5,  2.00987e+00
3, 6,  0.00000e+00
3, 7, -4.35570e+00
4, 1,  4.50924e-02
4, 2,  0.00000e+00
4, 3,  4.53036e-01
4, 4,  0.00000e+00
4, 5, -1.03682e+01
4, 6,  0.00000e+00
4, 7, -2.89219e+01
5, 1, -4.13763e-01
5, 2,  0.00000e+00
5, 3, -8.49240e+00
5, 4,  0.00000e+00
5, 5,  3.35449e+01
5, 6,  0.00000e+00
5, 7, -2.01911e+02
6, 1, -1.57951e+00
6, 2,  0.00000e+00
6, 3,  2.99023e+01
6, 4,  0.00000e+00
6, 5, -6.09784e-01
6, 6,  0.00000e+00
6, 7,  6.90076e+01
7, 1,  5.87437e+00
7, 2,  0.00000e+00
7, 3,  9.40962e+01
7, 4,  0.00000e+00
7, 5,  6.58996e+01
7, 6,  0.00000e+00
7, 7,  2.40732e+01
SET2
 2, EXTF extended function flag
 7.762192, Tm, Brho=By*Rdipole optimum
 1.940548, By at mid-bend position (NomField)
#Probe position(s) and field(s) (Only placeholder for now)
0, 0, 0 
0, 0, 0 
 0, Amps
 0.003481, sqrtRSS for residual of data to ROOT_MSS model
IEE1_ENGEC
-5.35403e-01 
 2.73956e+00 
-1.26724e+00 
 9.29833e-02 
 3.48081e-01 
 5.57176e-02 
-8.60402e-02 
 9.81650e-01 
 3.12223e-01 
-4.21189e-02 
 1.66566e+00 
-2.24308e+00 
IEE2_ENGEC
-5.35403e-01 
 2.73956e+00 
-1.26724e+00 
 9.29833e-02 
 3.48081e-01 
 5.57176e-02 
-8.60402e-02 
 9.81650e-01 
 3.12223e-01 
-4.21189e-02 
 1.66566e+00 
-2.24308e+00 
W_COEFS: i,j,W(i,j)
1, 1,  0.9964424951156103
1, 2,  0.00000e+00
1, 3,  8.02990e-02
1, 4,  0.00000e+00
1, 5, -4.39114e-01
1, 6,  0.00000e+00
1, 7, -6.19762e-01
2, 1,  9.77496e-03
2, 2,  0.00000e+00
2, 3, -1.92418e-01
2, 4,  0.00000e+00
2, 5,  9.14775e-01
2, 6,  0.00000e+00
2, 7, -5.73826e-01
3, 1, -2.65372e-02
3, 2,  0.00000e+00
3, 3, -3.47604e-01
3, 4,  0.00000e+00
3, 5, -6.19672e-01
3, 6,  0.00000e+00
3, 7,  1.80517e+01
4, 1, -3.02334e-01
4, 2,  0.00000e+00
4, 3, -2.72660e+00
4, 4,  0.00000e+00
4, 5,  8.22385e+01
4, 6,  0.00000e+00
4, 7, -3.41522e+02
5, 1,  1.80808e+00
5, 2,  0.00000e+00
5, 3, -1.18546e-02
5, 4,  0.00000e+00
5, 5, -9.58857e+01
5, 6,  0.00000e+00
5, 7, -1.91735e+02
6, 1,  2.72127e+00
6, 2,  0.00000e+00
6, 3,  1.16137e+02
6, 4,  0.00000e+00
6, 5, -2.04917e+03
6, 6,  0.00000e+00
6, 7,  7.40972e+03
7, 1, -2.49490e+01
7, 2,  0.00000e+00
7, 3, -7.90527e+00
7, 4,  0.00000e+00
7, 5,  2.35921e+03
7, 6,  0.00000e+00
7, 7, -7.96276e+03
END
