# PRINT_GLOBAL_MAPS_PM 
shield
   1.000000      0.000000      0.000000      0.000000      0.000000     1000000
  0.5020000      1.000000      0.000000      0.000000      0.000000     0100000
   0.000000      0.000000      1.000000      0.000000      0.000000     0010000
   0.000000      0.000000     0.5020000      1.000000      0.000000     0001000
   0.000000      0.000000      0.000000      0.000000      1.000000     0000100
   0.000000      0.000000      0.000000      0.000000     0.1061681     0000010
 ------------------------------------------------------------------------------
 ME(6,6)=   1.00000000 1/ME(6,6)=   1.00000000
# SB 0.14373E-02 0.28000E-02   0.97797 0.14373E-02 0.28000E-02   0.97797   0.16300 0.10000E-02 0.65134E-03 0 0 ;
# RPR_   4.39041 0.12388E+03 54 54 ;
-- Twiss parameters
 EPS_X[mm.mrad],     0.84000000
 BETAX,   2.459180190476194
 GAMMAX,  9.333333333333350
 ALPHAX, -0.9779731456245082
 EPS_Y[mm.mrad],     0.84000000
 BETAY,   2.459180190476194
 GAMMAY,  9.333333333333350
 ALPHAY, -0.9779731456245082
 S,     0.50200000
{  g (gamma) :=   1.174477401253103 ,}
{  (g+1)/g :=   1.851442521527494 ,}
{  (g+1)/g*(1,6) =   0.000000000000000 }
{  (g+1)/g*(1,6)/(1,1) =   0.000000000000000 }
 M0, Z0, E0, CHIM
  123.87750000,  54, 20133.14792194,     4.39041000
BTS01A
  -1.145305    -0.9994195E-01  0.000000      0.000000     0.2907419     1000000
  0.7114721    -0.8110455      0.000000      0.000000    -0.4427156     0100000
   0.000000      0.000000     -1.322619    -0.5105122      0.000000     0010000
   0.000000      0.000000      2.174903     0.8340568E-01  0.000000     0001000
   0.000000      0.000000      0.000000      0.000000      1.000000     0000100
  0.3001895     0.2800507      0.000000      0.000000      1.553928     0000010
 ------------------------------------------------------------------------------
 ME(6,6)=   1.00000000 1/ME(6,6)=   1.00000000
# SB 0.20215E-02 0.22711E-02  -0.98312 0.61026E-02 0.27928E-03   0.87011   0.16301 0.10000E-02 0.95329E-02 0 0 ;
# RPR_   4.39041 0.12388E+03 54 54 ;
-- Twiss parameters
 EPS_X[mm.mrad],     0.84000034
 BETAX,   4.865003194995946
 GAMMAX,  6.140486275315873
 ALPHAX,  0.9831202874051472
 EPS_Y[mm.mrad],     0.84000035
 BETAY,   44.33595498824998
 GAMMAY, 0.9285123449744834E-01
 ALPHAY, -0.8701056992147597
 S,     7.49439510
{  g (gamma) :=   1.174477401253103 ,}
{  (g+1)/g :=   1.851442521527494 ,}
{  (g+1)/g*(1,6) =  0.5557835496927548 }
{  (g+1)/g*(1,6)/(1,1) = -0.4852712176717365 }
 M0, Z0, E0, CHIM
  123.87750000,  54, 20133.14792194,     4.39041000
BTS01B
  -1.216564    -0.9994195E-01  0.000000      0.000000     0.2907419     1000000
  0.1331966    -0.8110455      0.000000      0.000000    -0.4427156     0100000
   0.000000      0.000000     -1.686614    -0.5105122      0.000000     0010000
   0.000000      0.000000      2.234371     0.8340568E-01  0.000000     0001000
   0.000000      0.000000      0.000000      0.000000      1.000000     0000100
  0.4998656     0.2800507      0.000000      0.000000      1.704721     0000010
 ------------------------------------------------------------------------------
 ME(6,6)=   1.00000000 1/ME(6,6)=   1.00000000
# SB 0.52182E-03 0.22711E-02  -0.70542 0.62767E-02 0.27928E-03   0.87771   0.16301 0.10000E-02   0.01046 0 0 ;
# RPR_   4.39041 0.12388E+03 54 54 ;
-- Twiss parameters
 EPS_X[mm.mrad],     0.84000034
 BETAX,  0.3241599943359871
 GAMMAX,  6.140486275315867
 ALPHAX,  0.7054173686236666
 EPS_Y[mm.mrad],     0.84000035
 BETAY,   46.90062251738244
 GAMMAY, 0.9285123449744836E-01
 ALPHAY, -0.8777057089157018
 S,     8.20739510
{  g (gamma) :=   1.174477401253103 ,}
{  (g+1)/g :=   1.851442521527494 ,}
{  (g+1)/g*(1,6) =  0.9254724211520534 }
{  (g+1)/g*(1,6)/(1,1) = -0.7607267014777256 }
 M0, Z0, E0, CHIM
  123.87750000,  54, 20133.14792194,     4.39041000
BTS01C
   1.385810     0.8764044E-01  0.000000      0.000000    -0.1215580     1000000
 -0.2554066E-03 0.7215896      0.000000      0.000000     -1.000903     0100000
   0.000000      0.000000    -0.9988327      1.314425      0.000000     0010000
   0.000000      0.000000     0.5209443E-03 -1.001863      0.000000     0001000
   0.000000      0.000000      0.000000      0.000000      1.000000     0000100
  -1.387092    -0.4562063E-05  0.000000      0.000000      4.175535     0000010
 ------------------------------------------------------------------------------
 ME(6,6)=   1.00000000 1/ME(6,6)=   1.00000000
# SB 0.41574E-03 0.20206E-02   0.01129 0.29965E-03 0.28328E-02  -0.14402   0.16305 0.10000E-02   0.02561 0 0 ;
# RPR_   4.39041 0.12388E+03 54 54 ;
-- Twiss parameters
 EPS_X[mm.mrad],     0.84000736
 BETAX,  0.2057635050145583
 GAMMAX,  4.860568072270274
 ALPHAX, -0.1129188434969956E-01
 EPS_Y[mm.mrad],     0.84000740
 BETAY,  0.1068944493681412
 GAMMAY,  9.553171086390160
 ALPHAY,  0.1440195653089574
 S,    18.40672120
{  g (gamma) :=   1.174477401253103 ,}
{  (g+1)/g :=   1.851442521527494 ,}
{  (g+1)/g*(1,6) =  -2.568120905205743 }
{  (g+1)/g*(1,6)/(1,1) =  -1.853154565049042 }
 M0, Z0, E0, CHIM
  123.87750000,  54, 20133.14792194,     4.39041000
F1S2b_wedge
   1.385810     0.8764044E-01  0.000000      0.000000    -0.1215580     1000000
 -0.2554066E-03 0.7215896      0.000000      0.000000     -1.000903     0100000
   0.000000      0.000000    -0.9988327      1.314425      0.000000     0010000
   0.000000      0.000000     0.5209443E-03 -1.001863      0.000000     0001000
   0.000000      0.000000      0.000000      0.000000      1.000000     0000100
  -1.387092    -0.4562063E-05  0.000000      0.000000      4.175535     0000010
 ------------------------------------------------------------------------------
 ME(6,6)=   1.00000000 1/ME(6,6)=   1.00000000
# SB 0.41574E-03 0.20206E-02   0.01129 0.29965E-03 0.28328E-02  -0.14402   0.16305 0.10000E-02   0.02561 0 0 ;
# RPR_   4.39041 0.12388E+03 54 54 ;
-- Twiss parameters
 EPS_X[mm.mrad],     0.84000736
 BETAX,  0.2057635050145583
 GAMMAX,  4.860568072270274
 ALPHAX, -0.1129188434969956E-01
 EPS_Y[mm.mrad],     0.84000740
 BETAY,  0.1068944493681412
 GAMMAY,  9.553171086390160
 ALPHAY,  0.1440195653089574
 S,    18.40672120
{  g (gamma) :=   1.174477401253103 ,}
{  (g+1)/g :=   1.851442521527494 ,}
{  (g+1)/g*(1,6) =  -2.568120905205743 }
{  (g+1)/g*(1,6)/(1,1) =  -1.853154565049042 }
 M0, Z0, E0, CHIM
  123.87750000,  54, 20133.14792194,     4.39041000
BTS02
  -3.297337    -0.3816088E-01  0.000000      0.000000     -1.408431     1000000
  0.1709604E-06-0.3032794      0.000000      0.000000     0.2768601E-01 0100000
   0.000000      0.000000      5.718644     0.3568480      0.000000     0010000
   0.000000      0.000000     -1.312493     0.9296865E-01  0.000000     0001000
   0.000000      0.000000      0.000000      0.000000      1.000000     0000100
 -0.9124145E-01-0.4281983      0.000000      0.000000      8.419709     0000010
 ------------------------------------------------------------------------------
 ME(6,6)=   1.00000000 1/ME(6,6)=   1.00000000
# SB 0.98920E-03 0.84926E-03   0.01348 0.40557E-02 0.28147E-03  -0.67714   0.16322 0.10000E-02   0.05159 0 0 ;
# RPR_   4.39041 124 54 54 ;
-- Twiss parameters
 EPS_X[mm.mrad],     0.84001233
 BETAX,   1.164886534124725
 GAMMAX, 0.8586087217905666
 ALPHAX, -0.1347980241471251E-01
 EPS_Y[mm.mrad],     0.84001257
 BETAY,   19.58153425606419
 GAMMAY, 0.9431179338800282E-01
 ALPHAY,  0.6771365746953372
 S,    32.42972271
{  g (gamma) :=   1.174158388361447 ,}
{  (g+1)/g :=   1.851673854151409 ,}
{  (g+1)/g*(1,6) = -0.1689493994300260 }
{  (g+1)/g*(1,6)/(1,1) =  0.5123812929926445E-01 }
 M0, Z0, E0, CHIM
  124.00000000,  54, 20116.20952589,     4.39041000
BTS03
  0.5009707     0.6364228      0.000000      0.000000     0.1193160     1000000
  -1.459234     0.1423730      0.000000      0.000000      1.044375     0100000
   0.000000      0.000000      10.56252     0.3135824      0.000000     0010000
   0.000000      0.000000     0.1058093E-04 0.9467611E-01  0.000000     0001000
   0.000000      0.000000      0.000000      0.000000      1.000000     0000100
  0.6972912     0.6476580      0.000000      0.000000      12.73202     0000010
 ------------------------------------------------------------------------------
 ME(6,6)=   1.00000000 1/ME(6,6)=   1.00000000
# SB 0.40886E-02 0.44201E-03  -0.88541 0.31688E-02 0.28129E-03   0.33445   0.16350 0.10000E-02   0.07787 0 0 ;
# RPR_   4.39041 124 54 54 ;
-- Twiss parameters
 EPS_X[mm.mrad],     0.84001233
 BETAX,   19.90067130075042
 GAMMAX, 0.2325804374643930
 ALPHAX,  0.8854081557551357
 EPS_Y[mm.mrad],     0.84001257
 BETAY,   11.95341056500515
 GAMMAY, 0.9419430745266660E-01
 ALPHAY, -0.3344484337322286
 S,    46.48587621
{  g (gamma) :=   1.174158388361447 ,}
{  (g+1)/g :=   1.851673854151409 ,}
{  (g+1)/g*(1,6) =   1.291155796076620 }
{  (g+1)/g*(1,6)/(1,1) =   2.577308105062096 }
 M0, Z0, E0, CHIM
  124.00000000,  54, 20116.20952589,     4.39041000
(1,6)/(1,1)=   0.69729115 /   0.50097068 =   1.39188016
 ME(6,6)=   1.00000000 1/ME(6,6)=   1.00000000
  SPOS   46.48587621276369
 PA 
  0.1502912E-03 0.1909268E-03  0.000000      0.000000     0.3579480E-04 1000000
 -0.4085856E-02 0.3986444E-03  0.000000      0.000000     0.2924249E-02 0100000
   0.000000      0.000000     0.3168756E-02 0.9407472E-04  0.000000     0010000
   0.000000      0.000000     0.2962660E-07 0.2650931E-03  0.000000     0001000
   0.000000      0.000000      0.000000      0.000000     0.1630000     0000100
  0.6972912E-03 0.6476580E-03  0.000000      0.000000     0.1273202E-01 0000010
 ------------------------------------------------------------------------------
 SPOS         46.4859m 
 GTRA(1)        0.00000m       0.0000ft 
 GTRA(2)        0.00000m       0.0000ft 
 GTRA(3)       12.37197m      40.5905ft 
