#2020-09 MP--  Ref. FRIB-T40503-TD-001567,,,,,,,,,,,,,,,,,,,,,,,,,,,
#\\intranet\files\departments\fribESD\MagnetSystems\Maxwell\FSQ8,,,,,,,,,,,,,,,,,,,,,,,,,,,
#  0.252, [m] pole-tip radius of quadrupole yoke T40303-TD-000917,,,,,,,,,,,,,,,,,,,,,,,,,,
M5_PARAM_TABLE_V01,,,,,,,,,,,,,,,,,,,,,,,,,,,
0.1937, Reference radius to use with coefficients.,,,,,,,,,,,,,,,,,,,,,,,,,,
0.781, yoke length (value of quad yoke),,,,,,,,,,,,,,,,,,,,,,,,,,
4, IMP order of multipole,,,,,,,,,,,,,,,,,,,,,,,,,,
2, IMP_REF multipole for effective length of M5,,,,,,,,,,,,,,,,,,,,,,,,,,
0, oper. lower limit (field gradient),,,,,,,,,,,,,,,,,,,,,,,,,,
12.485454, oper. upper limit (field gradient),,,,,,,,,,,,,,,,,,,,,,,,,,
# i2[A],g4[T/m^3],Br(Rwb)[T],LEFF[m], a0i, a0e, a1i, a1e, a2i, a2e, a3i, a3e, a4i, a4e, a5i, a5e, a6i, a6e, a7i, a7e, a8i, a8e, a9i, a9e, a10i, a10e, a11i, a11e
START table,,,,,,,,,,,,,,,,,,,,,,,,,,,
0,0,0,0.865586,0.056275,0.056275,9.697306516,9.697306516,0,0,0,0,0,0,0,0,0,0,0,0,0,0,0,0,0,0,0,0
2.197385,2.508168,0.018228271,0.865586,0.056275,0.056275,9.697306516,9.697306516,0,0,0,0,0,0,0,0,0,0,0,0,0,0,0,0,0,0,0,0
4.39771,5.099109,0.037058101,0.863515,-0.064514,-0.064514,10.31107451,10.31107451,0,0,0,0,0,0,0,0,0,0,0,0,0,0,0,0,0,0,0,0
6.698059,7.567108,0.054994441,0.860305,-0.085029,-0.085029,10.23920032,10.23920032,0,0,0,0,0,0,0,0,0,0,0,0,0,0,0,0,0,0,0,0
8.898546,9.988241,0.07259018,0.859325,-0.087469,-0.087469,10.28195714,10.28195714,0,0,0,0,0,0,0,0,0,0,0,0,0,0,0,0,0,0,0,0
11.098647,12.485454,0.090738835,0.859158,-0.098786,-0.098786,10.28243646,10.28243646,0,0,0,0,0,0,0,0,0,0,0,0,0,0,0,0,0,0,0,0
END,,,,,,,,,,,,,,,,,,,,,,,,,,,
