#2020-09 MP--  Ref. FRIB-T40503-TD-001567,,,,,,,,,,,,,,,,,,,,,,,,,,,
#\\intranet\files\departments\fribESD\MagnetSystems\Maxwell\FSQ8,,,,,,,,,,,,,,,,,,,,,,,,,,,
#  0.252, [m] pole-tip radius of quadrupole yoke T40303-TD-000917,,,,,,,,,,,,,,,,,,,,,,,,,,
M5_PARAM_TABLE_V01,,,,,,,,,,,,,,,,,,,,,,,,,,,
0.1937, Reference radius to use with coefficients.,,,,,,,,,,,,,,,,,,,,,,,,,,
0.781, yoke length (value of quad yoke),,,,,,,,,,,,,,,,,,,,,,,,,,
1, IMP order of multipole,,,,,,,,,,,,,,,,,,,,,,,,,,
2, IMP_REF multipole for effective length of M5,,,,,,,,,,,,,,,,,,,,,,,,,,
0, oper. lower limit (field gradient),,,,,,,,,,,,,,,,,,,,,,,,,,
0.019185, oper. upper limit (field gradient),,,,,,,,,,,,,,,,,,,,,,,,,,
# i[A] ,g1[T],Br(Rwb)[T],LEFF[m], a0i, a0e, a1i, a1e, a2i, a2e, a3i, a3e, a4i, a4e, a5i, a5e, a6i, a6e, a7i, a7e, a8i, a8e, a9i, a9e, a10i, a10e, a11i, a11e
START table,,,,,,,,,,,,,,,,,,,,,,,,,,,
0,0,0,0.91848,0.199483,0.208993,5.491529605,5.584205206,0,0,0,0,0,0,0,0,0,0,0,0,0,0,0,0,0,0,0,0
4.091829,0.004075,0.004075,0.91848,0.199483,0.208993,5.491529605,5.584205206,0,0,0,0,0,0,0,0,0,0,0,0,0,0,0,0,0,0,0,0
8.19276,0.007905,0.007905,0.904554,0.185456,0.202746,5.491849703,5.694008483,0,0,0,0,0,0,0,0,0,0,0,0,0,0,0,0,0,0,0,0
12.393005,0.011751,0.011751,0.899317,0.17109,0.196347,5.492179649,5.806471031,0,0,0,0,0,0,0,0,0,0,0,0,0,0,0,0,0,0,0,0
16.493814,0.015468,0.015468,0.89853,0.157063,0.1901,5.492499747,5.916272667,0,0,0,0,0,0,0,0,0,0,0,0,0,0,0,0,0,0,0,0
20.594006,0.019185,0.019185,0.897584,0.143038,0.183854,5.492821486,6.026056246,0,0,0,0,0,0,0,0,0,0,0,0,0,0,0,0,0,0,0,0
END,,,,,,,,,,,,,,,,,,,,,,,,,,,
